<?xml version="1.0" encoding="UTF-8" standalone="no"?>
<!-- Created with Inkscape (http://www.inkscape.org/) -->

<svg
   width="91.956367mm"
   height="78.714996mm"
   viewBox="0 0 91.956368 78.714997"
   version="1.1"
   id="svg5"
   inkscape:version="1.1.1 (3bf5ae0d25, 2021-09-20)"
   sodipodi:docname="nash_bargaining.svg"
   xmlns:inkscape="http://www.inkscape.org/namespaces/inkscape"
   xmlns:sodipodi="http://sodipodi.sourceforge.net/DTD/sodipodi-0.dtd"
   xmlns="http://www.w3.org/2000/svg"
   xmlns:svg="http://www.w3.org/2000/svg">
  <sodipodi:namedview
     id="namedview7"
     pagecolor="#ffffff"
     bordercolor="#666666"
     borderopacity="1.0"
     inkscape:pageshadow="2"
     inkscape:pageopacity="0.0"
     inkscape:pagecheckerboard="0"
     inkscape:document-units="mm"
     showgrid="true"
     inkscape:zoom="1.8117943"
     inkscape:cx="179.10422"
     inkscape:cy="152.33517"
     inkscape:window-width="1560"
     inkscape:window-height="831"
     inkscape:window-x="40"
     inkscape:window-y="32"
     inkscape:window-maximized="1"
     inkscape:current-layer="layer1"
     showguides="false"
     fit-margin-top="0"
     fit-margin-left="0"
     fit-margin-right="0"
     fit-margin-bottom="0">
    <inkscape:grid
       type="xygrid"
       id="grid824"
       originx="-8.5852956"
       originy="-21.14579" />
  </sodipodi:namedview>
  <defs
     id="defs2">
    <inkscape:path-effect
       effect="spiro"
       id="path-effect3118"
       is_visible="true"
       lpeversion="1" />
    <inkscape:path-effect
       effect="spiro"
       id="path-effect3067"
       is_visible="true"
       lpeversion="1" />
    <inkscape:path-effect
       effect="spiro"
       id="path-effect3020"
       is_visible="true"
       lpeversion="1" />
    <inkscape:path-effect
       effect="spiro"
       id="path-effect2815"
       is_visible="true"
       lpeversion="1" />
    <inkscape:path-effect
       effect="spiro"
       id="path-effect2554"
       is_visible="true"
       lpeversion="1" />
    <inkscape:path-effect
       effect="spiro"
       id="path-effect2439"
       is_visible="true"
       lpeversion="1" />
    <inkscape:path-effect
       effect="spiro"
       id="path-effect1002"
       is_visible="true"
       lpeversion="1" />
    <inkscape:path-effect
       effect="spiro"
       id="path-effect11996"
       is_visible="true"
       lpeversion="1" />
    <inkscape:path-effect
       effect="spiro"
       id="path-effect9781"
       is_visible="true"
       lpeversion="1" />
    <inkscape:path-effect
       effect="spiro"
       id="path-effect9777"
       is_visible="true"
       lpeversion="1" />
    <inkscape:path-effect
       effect="spiro"
       id="path-effect9773"
       is_visible="true"
       lpeversion="1" />
    <inkscape:path-effect
       effect="spiro"
       id="path-effect9769"
       is_visible="true"
       lpeversion="1" />
    <inkscape:path-effect
       effect="spiro"
       id="path-effect9527"
       is_visible="true"
       lpeversion="1" />
    <inkscape:path-effect
       effect="spiro"
       id="path-effect9523"
       is_visible="true"
       lpeversion="1" />
    <inkscape:path-effect
       effect="spiro"
       id="path-effect9519"
       is_visible="true"
       lpeversion="1" />
    <inkscape:path-effect
       effect="spiro"
       id="path-effect9515"
       is_visible="true"
       lpeversion="1" />
    <inkscape:path-effect
       effect="spiro"
       id="path-effect9511"
       is_visible="true"
       lpeversion="1" />
    <inkscape:path-effect
       effect="spiro"
       id="path-effect8729"
       is_visible="true"
       lpeversion="1" />
    <inkscape:path-effect
       effect="spiro"
       id="path-effect8378"
       is_visible="true"
       lpeversion="1" />
    <inkscape:path-effect
       effect="spiro"
       id="path-effect8374"
       is_visible="true"
       lpeversion="1" />
    <inkscape:path-effect
       effect="spiro"
       id="path-effect8370"
       is_visible="true"
       lpeversion="1" />
    <inkscape:path-effect
       effect="spiro"
       id="path-effect8366"
       is_visible="true"
       lpeversion="1" />
    <inkscape:path-effect
       effect="spiro"
       id="path-effect8014"
       is_visible="true"
       lpeversion="1" />
    <marker
       style="overflow:visible"
       id="Arrow1Mend"
       refX="0"
       refY="0"
       orient="auto"
       inkscape:stockid="Arrow1Mend"
       inkscape:isstock="true">
      <path
         transform="matrix(-0.4,0,0,-0.4,-4,0)"
         style="fill:context-stroke;fill-rule:evenodd;stroke:context-stroke;stroke-width:1pt"
         d="M 0,0 5,-5 -12.5,0 5,5 Z"
         id="path2162" />
    </marker>
    <inkscape:path-effect
       effect="spiro"
       id="path-effect2151"
       is_visible="true"
       lpeversion="1" />
    <inkscape:path-effect
       effect="spiro"
       id="path-effect4245"
       is_visible="true"
       lpeversion="1" />
    <inkscape:path-effect
       effect="spiro"
       id="path-effect4241"
       is_visible="true"
       lpeversion="1" />
    <inkscape:path-effect
       effect="spiro"
       id="path-effect4237"
       is_visible="true"
       lpeversion="1" />
    <inkscape:path-effect
       effect="spiro"
       id="path-effect4233"
       is_visible="true"
       lpeversion="1" />
    <inkscape:path-effect
       effect="spiro"
       id="path-effect3771"
       is_visible="true"
       lpeversion="1" />
    <inkscape:path-effect
       effect="spiro"
       id="path-effect2575"
       is_visible="true"
       lpeversion="1" />
    <inkscape:path-effect
       effect="spiro"
       id="path-effect2460"
       is_visible="true"
       lpeversion="1" />
    <inkscape:path-effect
       effect="spiro"
       id="path-effect2407"
       is_visible="true"
       lpeversion="1" />
    <inkscape:path-effect
       effect="spiro"
       id="path-effect2403"
       is_visible="true"
       lpeversion="1" />
    <inkscape:path-effect
       effect="spiro"
       id="path-effect2399"
       is_visible="true"
       lpeversion="1" />
    <inkscape:path-effect
       effect="spiro"
       id="path-effect1897"
       is_visible="true"
       lpeversion="1" />
    <inkscape:path-effect
       effect="spiro"
       id="path-effect1020"
       is_visible="true"
       lpeversion="1" />
    <inkscape:path-effect
       effect="spiro"
       id="path-effect1016"
       is_visible="true"
       lpeversion="1" />
    <inkscape:path-effect
       effect="spiro"
       id="path-effect1012"
       is_visible="true"
       lpeversion="1" />
    <inkscape:path-effect
       effect="spiro"
       id="path-effect16882"
       is_visible="true"
       lpeversion="1" />
    <inkscape:path-effect
       effect="spiro"
       id="path-effect16878"
       is_visible="true"
       lpeversion="1" />
    <inkscape:path-effect
       effect="spiro"
       id="path-effect16874"
       is_visible="true"
       lpeversion="1" />
    <inkscape:path-effect
       effect="spiro"
       id="path-effect16870"
       is_visible="true"
       lpeversion="1" />
    <inkscape:path-effect
       effect="spiro"
       id="path-effect16866"
       is_visible="true"
       lpeversion="1" />
    <inkscape:path-effect
       effect="spiro"
       id="path-effect15875"
       is_visible="true"
       lpeversion="1" />
    <inkscape:path-effect
       effect="spiro"
       id="path-effect15646"
       is_visible="true"
       lpeversion="1" />
    <inkscape:path-effect
       effect="spiro"
       id="path-effect15426"
       is_visible="true"
       lpeversion="1" />
    <inkscape:path-effect
       effect="spiro"
       id="path-effect15422"
       is_visible="true"
       lpeversion="1" />
    <inkscape:path-effect
       effect="spiro"
       id="path-effect15418"
       is_visible="true"
       lpeversion="1" />
    <inkscape:path-effect
       effect="spiro"
       id="path-effect15414"
       is_visible="true"
       lpeversion="1" />
    <inkscape:path-effect
       effect="spiro"
       id="path-effect6441"
       is_visible="true"
       lpeversion="1" />
    <inkscape:path-effect
       effect="spiro"
       id="path-effect6221"
       is_visible="true"
       lpeversion="1" />
    <inkscape:path-effect
       effect="powerstroke"
       id="path-effect6176"
       is_visible="true"
       lpeversion="1"
       offset_points="0,1"
       not_jump="false"
       sort_points="true"
       interpolator_type="CubicBezierJohan"
       interpolator_beta="0.2"
       start_linecap_type="zerowidth"
       linejoin_type="extrp_arc"
       miter_limit="4"
       scale_width="1"
       end_linecap_type="zerowidth" />
    <inkscape:path-effect
       effect="powerstroke"
       id="path-effect6170"
       is_visible="true"
       lpeversion="1"
       offset_points="0,1"
       not_jump="false"
       sort_points="true"
       interpolator_type="CubicBezierJohan"
       interpolator_beta="0.2"
       start_linecap_type="zerowidth"
       linejoin_type="extrp_arc"
       miter_limit="4"
       scale_width="1"
       end_linecap_type="zerowidth" />
    <inkscape:path-effect
       effect="powerstroke"
       id="path-effect6164"
       is_visible="true"
       lpeversion="1"
       offset_points="0,1"
       not_jump="false"
       sort_points="true"
       interpolator_type="CubicBezierJohan"
       interpolator_beta="0.2"
       start_linecap_type="zerowidth"
       linejoin_type="extrp_arc"
       miter_limit="4"
       scale_width="1"
       end_linecap_type="zerowidth" />
    <inkscape:path-effect
       effect="spiro"
       id="path-effect5977"
       is_visible="true"
       lpeversion="1" />
    <inkscape:path-effect
       effect="spiro"
       id="path-effect1210"
       is_visible="true"
       lpeversion="1" />
    <inkscape:path-effect
       effect="spiro"
       id="path-effect1009"
       is_visible="true"
       lpeversion="1" />
    <inkscape:path-effect
       effect="spiro"
       id="path-effect865"
       is_visible="true"
       lpeversion="1" />
    <inkscape:path-effect
       effect="spiro"
       id="path-effect861"
       is_visible="true"
       lpeversion="1" />
    <inkscape:path-effect
       effect="spiro"
       id="path-effect8598"
       is_visible="true"
       lpeversion="1" />
    <inkscape:path-effect
       effect="spiro"
       id="path-effect8468"
       is_visible="true"
       lpeversion="1" />
    <marker
       style="overflow:visible"
       id="Arrow1Mend-4"
       refX="0"
       refY="0"
       orient="auto"
       inkscape:stockid="Arrow1Mend"
       inkscape:isstock="true">
      <path
         transform="matrix(-0.4,0,0,-0.4,-4,0)"
         style="fill:context-stroke;fill-rule:evenodd;stroke:context-stroke;stroke-width:1pt"
         d="M 0,0 5,-5 -12.5,0 5,5 Z"
         id="path2162-7" />
    </marker>
    <marker
       style="overflow:visible"
       id="Arrow1Mend-4-4"
       refX="0"
       refY="0"
       orient="auto"
       inkscape:stockid="Arrow1Mend"
       inkscape:isstock="true">
      <path
         transform="matrix(-0.4,0,0,-0.4,-4,0)"
         style="fill:context-stroke;fill-rule:evenodd;stroke:context-stroke;stroke-width:1pt"
         d="M 0,0 5,-5 -12.5,0 5,5 Z"
         id="path2162-7-0" />
    </marker>
  </defs>
  <g
     inkscape:label="Layer 1"
     inkscape:groupmode="layer"
     id="layer1"
     transform="translate(-8.5852999,-21.145787)">
    <g
       id="g10798"
       transform="matrix(1.4501011,0,0,1.4501011,-284.07145,-262.77825)" />
    <path
       style="fill:#cccccc;fill-opacity:1;fill-rule:evenodd;stroke:#000000;stroke-width:0.264583px;stroke-linecap:butt;stroke-linejoin:miter;stroke-opacity:1"
       d="m 11.906257,78.052097 5.291663,-5.291665 7.9375,2.645833 7.9375,7.937484 2.645833,7.9375 -5.291666,5.291666 -7.9375,2.645834 L 11.906248,96.572918 9.2604244,85.989594 Z"
       id="path1007-9-2-8-4"
       inkscape:path-effect="#path-effect8014"
       inkscape:original-d="m 11.906257,78.052097 5.291663,-5.291665 7.9375,2.645833 7.9375,7.937484 2.645833,7.9375 -5.291666,5.291666 -7.9375,2.645834 L 11.906248,96.572918 9.2604244,85.989594 Z"
       sodipodi:nodetypes="cccccccccc" />
    <path
       style="fill:none;fill-rule:evenodd;stroke:#000000;stroke-width:0.264583px;stroke-linecap:butt;stroke-linejoin:miter;stroke-opacity:1"
       d="M 10.583336,95.250001 H 47.625004"
       id="path859-1-4"
       inkscape:path-effect="#path-effect4233"
       inkscape:original-d="m 10.583336,95.250001 c 12.589974,0.2166 24.694709,2.7e-4 37.041668,0" />
    <path
       style="fill:none;fill-rule:evenodd;stroke:#000000;stroke-width:0.264583px;stroke-linecap:butt;stroke-linejoin:miter;stroke-opacity:1"
       d="M 13.229171,97.895831 V 66.145847"
       id="path863-5-2"
       inkscape:path-effect="#path-effect4237"
       inkscape:original-d="m 13.229171,97.895831 c 2.64e-4,-10.583054 2.64e-4,-21.166388 0,-31.749984" />
    <path
       style="fill:none;fill-rule:evenodd;stroke:#008000;stroke-width:0.45961;stroke-linecap:butt;stroke-linejoin:miter;stroke-miterlimit:4;stroke-dasharray:none;stroke-opacity:1"
       d="m 28.575004,77.258332 c 0,0 0.803671,0.857334 0.803671,1.714668 0,0.857335 1.607341,-3.429337 1.607341,-3.429337"
       id="path7092-2-9-0"
       sodipodi:nodetypes="csc" />
    <g
       id="g10794-1-5"
       transform="matrix(1.9334681,0,0,1.9334681,-284.07145,-262.77825)">
      <g
         style="fill:#21353a;fill-opacity:1"
         id="g10182-4-5">
        <g
           id="use10180-9-2"
           transform="matrix(0.26458333,0,0,0.26458333,168.11733,186.83483)">
          <path
             style="stroke:none"
             d="M 1.390625,-1.046875 C 1.578125,-0.34375 2.078125,0.125 2.78125,0.125 c 1.3125,0 2.6875,-1.5625 2.6875,-3.171875 0,-1.15625 -0.71875,-1.78125 -1.515625,-1.78125 C 3.09375,-4.828125 2,-4.0625 1.5,-2.65625 c -0.03125,0.109375 -0.6875,2.53125 -0.6875,3.5 0,0.546875 0.1875,1.0625 1.515625,1.0625 0.40625,0 0.625,-0.046875 1.0625,-0.046875 0.203125,0 0.21875,0 0.28125,0.015625 0.171875,0.015625 0.203125,0.015625 0.21875,0.109375 0.015625,0.0625 0.015625,0.125 0.140625,0.125 0.09375,0 0.15625,-0.03125 0.15625,-0.296875 0,-0.53125 -0.484375,-0.53125 -1.5625,-0.53125 -0.984375,0 -1.484375,0 -1.484375,-0.734375 0,-0.09375 0,-0.5 0.25,-1.59375 z M 2.78125,-0.125 c -0.34375,0 -0.796875,-0.25 -0.796875,-1.140625 0,-0.6875 0.3125,-1.78125 0.59375,-2.28125 0.453125,-0.765625 1,-1.03125 1.359375,-1.03125 0.40625,0 0.75,0.3125 0.75,1.0625 0,0.609375 -0.3125,1.828125 -0.609375,2.359375 -0.359375,0.6875 -0.875,1.03125 -1.296875,1.03125 z m 0,0"
             id="path1461-1-9" />
        </g>
      </g>
    </g>
    <g
       id="g10794-4-0-0"
       transform="matrix(1.9334681,0,0,1.9334681,-316.87981,-292.94076)">
      <g
         style="fill:#21353a;fill-opacity:1"
         id="g10182-0-7-2">
        <g
           id="use10180-6-5-8"
           transform="matrix(0.26458333,0,0,0.26458333,168.11733,186.83483)">
          <path
             style="stroke:none"
             d="M 1.390625,-1.046875 C 1.578125,-0.34375 2.078125,0.125 2.78125,0.125 c 1.3125,0 2.6875,-1.5625 2.6875,-3.171875 0,-1.15625 -0.71875,-1.78125 -1.515625,-1.78125 C 3.09375,-4.828125 2,-4.0625 1.5,-2.65625 c -0.03125,0.109375 -0.6875,2.53125 -0.6875,3.5 0,0.546875 0.1875,1.0625 1.515625,1.0625 0.40625,0 0.625,-0.046875 1.0625,-0.046875 0.203125,0 0.21875,0 0.28125,0.015625 0.171875,0.015625 0.203125,0.015625 0.21875,0.109375 0.015625,0.0625 0.015625,0.125 0.140625,0.125 0.09375,0 0.15625,-0.03125 0.15625,-0.296875 0,-0.53125 -0.484375,-0.53125 -1.5625,-0.53125 -0.984375,0 -1.484375,0 -1.484375,-0.734375 0,-0.09375 0,-0.5 0.25,-1.59375 z M 2.78125,-0.125 c -0.34375,0 -0.796875,-0.25 -0.796875,-1.140625 0,-0.6875 0.3125,-1.78125 0.59375,-2.28125 0.453125,-0.765625 1,-1.03125 1.359375,-1.03125 0.40625,0 0.75,0.3125 0.75,1.0625 0,0.609375 -0.3125,1.828125 -0.609375,2.359375 -0.359375,0.6875 -0.875,1.03125 -1.296875,1.03125 z m 0,0"
             id="path1461-2-8-3" />
        </g>
      </g>
    </g>
    <text
       xml:space="preserve"
       style="font-size:4.32868px;line-height:100%;font-family:'Indie Flower';-inkscape-font-specification:'Indie Flower, Normal';letter-spacing:0px;word-spacing:0px;writing-mode:lr-tb;fill:#000000;fill-opacity:1;stroke:none;stroke-width:0.216433px;stroke-linecap:butt;stroke-linejoin:miter;stroke-opacity:1"
       x="43.473213"
       y="99.85656"
       id="text3971-7-8"><tspan
         sodipodi:role="line"
         id="tspan3969-0-0"
         style="fill:#000000;fill-opacity:1;stroke:none;stroke-width:0.216433px"
         x="43.473213"
         y="99.85656">1</tspan></text>
    <text
       xml:space="preserve"
       style="font-size:4.32868px;line-height:100%;font-family:'Indie Flower';-inkscape-font-specification:'Indie Flower, Normal';letter-spacing:0px;word-spacing:0px;writing-mode:lr-tb;fill:#000000;fill-opacity:1;stroke:none;stroke-width:0.216433px;stroke-linecap:butt;stroke-linejoin:miter;stroke-opacity:1"
       x="10.135713"
       y="70.223228"
       id="text3971-2-4-4"><tspan
         sodipodi:role="line"
         id="tspan3969-6-8-0"
         style="fill:#000000;fill-opacity:1;stroke:none;stroke-width:0.216433px"
         x="10.135713"
         y="70.223228">2</tspan></text>
    <g
       id="g7995-8-0-9"
       transform="matrix(0.50000006,0,0,0.50000006,-11.906248,66.145828)"
       style="stroke:#0000ff">
      <path
         style="fill:none;fill-rule:evenodd;stroke:#0000ff;stroke-width:1.265;stroke-linecap:butt;stroke-linejoin:miter;stroke-miterlimit:4;stroke-dasharray:none;stroke-opacity:1"
         d="m 47.624999,55.562499 5.291667,5.291667"
         id="path7786-6-4-1" />
      <path
         style="fill:none;fill-rule:evenodd;stroke:#0000ff;stroke-width:1.265;stroke-linecap:butt;stroke-linejoin:miter;stroke-miterlimit:4;stroke-dasharray:none;stroke-opacity:1"
         d="M 52.916667,55.5625 47.625,60.854167"
         id="path7786-5-2-2-9" />
    </g>
    <path
       style="fill:none;fill-rule:evenodd;stroke:#000000;stroke-width:0.264583px;stroke-linecap:butt;stroke-linejoin:miter;stroke-opacity:1;marker-end:url(#Arrow1Mend)"
       d="m 39.422918,38.364578 c 0.492789,-0.624197 1.146295,-1.120417 1.879909,-1.427455 0.733615,-0.307037 1.545754,-0.424229 2.336244,-0.33712 1.3827,0.152369 2.626957,0.905864 3.721347,1.764575 0.599186,0.47015 1.171634,0.979002 1.819187,1.379926 0.647552,0.400924 1.388195,0.693121 2.149563,0.673546 0.756155,-0.01944 1.473876,-0.34364 2.112283,-0.749329 0.638407,-0.40569 1.219295,-0.896517 1.856468,-1.304142 1.186733,-0.759202 2.563843,-1.218238 3.96875,-1.322917"
       id="path2149"
       sodipodi:nodetypes="cssscc"
       inkscape:original-d="m 39.422918,38.364578 c 15.874736,-2.64e-4 2.893501,-0.882366 4.216153,-1.764575 1.322652,-0.882209 2.398695,0.882895 3.721347,1.764575 1.322652,0.88168 4.167225,-5.327309 3.96875,2.053472 -0.04273,1.589006 2.646099,-1.171262 3.968751,-2.053471 1.322652,-0.882209 2.646098,-1.322653 3.96875,-1.322917"
       inkscape:path-effect="#path-effect2151" />
    <path
       style="fill:none;fill-rule:evenodd;stroke:#000000;stroke-width:0.264583px;stroke-linecap:butt;stroke-linejoin:miter;stroke-opacity:1;marker-end:url(#Arrow1Mend-4)"
       d="m 59.682803,80.697914 c -0.492789,-0.624197 -1.146295,-1.120417 -1.879909,-1.427455 -0.733615,-0.307037 -1.545754,-0.424229 -2.336244,-0.33712 -1.3827,0.152369 -2.626957,0.905864 -3.721347,1.764575 -0.599186,0.47015 -1.171634,0.979002 -1.819187,1.379926 -0.647552,0.400924 -1.388195,0.693121 -2.149563,0.673546 -0.756155,-0.01944 -1.473876,-0.34364 -2.112283,-0.749329 -0.638407,-0.40569 -1.219295,-0.896517 -1.856468,-1.304142 -1.186733,-0.759202 -2.563843,-1.218238 -3.96875,-1.322917"
       id="path2149-2"
       sodipodi:nodetypes="cssscc"
       inkscape:original-d="m 59.682803,80.697914 c -15.874736,-2.64e-4 -2.893501,-0.882366 -4.216153,-1.764575 -1.322652,-0.882209 -2.398695,0.882895 -3.721347,1.764575 -1.322652,0.88168 -4.167225,-5.327309 -3.96875,2.053472 0.04273,1.589006 -2.646099,-1.171262 -3.968751,-2.053471 -1.322652,-0.882209 -2.646098,-1.322653 -3.96875,-1.322917"
       inkscape:path-effect="#path-effect3067" />
    <path
       style="fill:none;fill-rule:evenodd;stroke:#000000;stroke-width:0.264583px;stroke-linecap:butt;stroke-linejoin:miter;stroke-opacity:1;marker-end:url(#Arrow1Mend-4-4)"
       d="m 81.202944,56.602275 c 0.359297,1.332646 0.96014,2.599775 1.764575,3.721347 0.44274,0.617285 0.946658,1.191206 1.351536,1.83396 0.404879,0.642754 0.711902,1.375211 0.701937,2.13479 -0.0099,0.757032 -0.333263,1.477746 -0.740623,2.115911 -0.40736,0.638165 -0.902325,1.216706 -1.312849,1.85284 -0.764152,1.184106 -1.223775,2.562974 -1.322917,3.96875"
       id="path2149-2-6"
       sodipodi:nodetypes="csscc"
       inkscape:original-d="m 81.202944,56.602275 c -0.882209,1.322652 0.882895,2.398695 1.764575,3.721347 0.881681,1.322652 -5.327309,4.167225 2.053473,3.96875 1.589006,-0.04273 -1.171262,2.646099 -2.053472,3.968751 -0.882209,1.322652 -1.322653,2.646098 -1.322917,3.96875"
       inkscape:path-effect="#path-effect3118" />
    <path
       style="fill:none;fill-rule:evenodd;stroke:#000000;stroke-width:0.264583;stroke-linecap:butt;stroke-linejoin:miter;stroke-miterlimit:4;stroke-dasharray:1.05833, 1.05833;stroke-dashoffset:0;stroke-opacity:1"
       d="M 10.583337,97.895831 37.041671,71.437499"
       id="path8466"
       inkscape:path-effect="#path-effect8468"
       inkscape:original-d="M 10.583337,97.895831 C 19.403048,89.076653 28.222492,80.257208 37.041671,71.437499" />
    <path
       style="fill:#cccccc;fill-opacity:0.586956;fill-rule:evenodd;stroke:#000000;stroke-width:0.264583;stroke-linecap:butt;stroke-linejoin:miter;stroke-miterlimit:4;stroke-dasharray:0.529166, 0.529166;stroke-dashoffset:0;stroke-opacity:1"
       d="m 64.822924,78.052095 5.291663,-5.291665 7.9375,2.645833 7.9375,7.937484 2.645833,7.937504 -5.291666,5.291657 -7.9375,2.645828 -10.583339,-2.645818 -2.645824,-10.583326 z"
       id="path1007-9-2-8-4-7"
       inkscape:path-effect="#path-effect8366"
       inkscape:original-d="m 64.822924,78.052095 5.291663,-5.291665 7.9375,2.645833 7.9375,7.937484 2.645833,7.937504 -5.291666,5.291657 -7.9375,2.645828 -10.583339,-2.645818 -2.645824,-10.583326 z"
       sodipodi:nodetypes="cccccccccc" />
    <path
       style="fill:#cccccc;fill-opacity:1;fill-rule:evenodd;stroke:#000000;stroke-width:0.264583px;stroke-linecap:butt;stroke-linejoin:miter;stroke-opacity:1"
       d="m 64.822924,78.052095 5.291663,-1.32293 10.583334,1.322916 5.291666,5.291666 2.645833,7.937504 -5.291666,5.291657 c -3.086806,3e-6 -6.173611,5e-6 -9.260417,7e-6 -3.086807,2e-6 -6.173615,3e-6 -9.260422,3e-6 L 62.177091,85.989592 Z"
       id="path1007-9-2-8-4-7-1"
       inkscape:path-effect="#path-effect8729"
       inkscape:original-d="m 64.822924,78.052095 5.291663,-1.32293 10.583334,1.322916 5.291666,5.291666 2.645833,7.937504 -5.291666,5.291657 -9.260417,7e-6 -9.260422,3e-6 -2.645824,-10.583326 z"
       sodipodi:nodetypes="cccccccccc" />
    <path
       style="fill:none;fill-rule:evenodd;stroke:#000000;stroke-width:0.264583px;stroke-linecap:butt;stroke-linejoin:miter;stroke-opacity:1"
       d="M 63.500003,95.249998 H 100.54167"
       id="path859-1-4-2"
       inkscape:path-effect="#path-effect8370"
       inkscape:original-d="m 63.500003,95.249998 c 12.589974,0.2166 24.694709,2.7e-4 37.041667,0" />
    <path
       style="fill:none;fill-rule:evenodd;stroke:#000000;stroke-width:0.264583px;stroke-linecap:butt;stroke-linejoin:miter;stroke-opacity:1"
       d="M 66.145838,97.895822 V 66.145845"
       id="path863-5-2-4"
       inkscape:path-effect="#path-effect8374"
       inkscape:original-d="m 66.145838,97.895822 c 2.64e-4,-10.583051 2.64e-4,-21.166381 0,-31.749977" />
    <path
       style="fill:none;fill-rule:evenodd;stroke:#008000;stroke-width:0.45961;stroke-linecap:butt;stroke-linejoin:miter;stroke-miterlimit:4;stroke-dasharray:none;stroke-opacity:1"
       d="m 81.491671,77.25833 c 0,0 0.803671,0.857334 0.803671,1.714668 0,0.857335 1.607341,-3.429337 1.607341,-3.429337"
       id="path7092-2-9-0-0"
       sodipodi:nodetypes="csc" />
    <g
       id="g10794-1-5-6"
       transform="matrix(1.9334681,0,0,1.9334681,-231.15478,-262.77827)">
      <g
         style="fill:#21353a;fill-opacity:1"
         id="g10182-4-5-2">
        <g
           id="use10180-9-2-9"
           transform="matrix(0.26458333,0,0,0.26458333,168.11733,186.83483)">
          <path
             style="stroke:none"
             d="M 1.390625,-1.046875 C 1.578125,-0.34375 2.078125,0.125 2.78125,0.125 c 1.3125,0 2.6875,-1.5625 2.6875,-3.171875 0,-1.15625 -0.71875,-1.78125 -1.515625,-1.78125 C 3.09375,-4.828125 2,-4.0625 1.5,-2.65625 c -0.03125,0.109375 -0.6875,2.53125 -0.6875,3.5 0,0.546875 0.1875,1.0625 1.515625,1.0625 0.40625,0 0.625,-0.046875 1.0625,-0.046875 0.203125,0 0.21875,0 0.28125,0.015625 0.171875,0.015625 0.203125,0.015625 0.21875,0.109375 0.015625,0.0625 0.015625,0.125 0.140625,0.125 0.09375,0 0.15625,-0.03125 0.15625,-0.296875 0,-0.53125 -0.484375,-0.53125 -1.5625,-0.53125 -0.984375,0 -1.484375,0 -1.484375,-0.734375 0,-0.09375 0,-0.5 0.25,-1.59375 z M 2.78125,-0.125 c -0.34375,0 -0.796875,-0.25 -0.796875,-1.140625 0,-0.6875 0.3125,-1.78125 0.59375,-2.28125 0.453125,-0.765625 1,-1.03125 1.359375,-1.03125 0.40625,0 0.75,0.3125 0.75,1.0625 0,0.609375 -0.3125,1.828125 -0.609375,2.359375 -0.359375,0.6875 -0.875,1.03125 -1.296875,1.03125 z m 0,0"
             id="path1461-1-9-9" />
        </g>
      </g>
    </g>
    <g
       id="g10794-4-0-0-0"
       transform="matrix(1.9334681,0,0,1.9334681,-263.96314,-292.94078)">
      <g
         style="fill:#21353a;fill-opacity:1"
         id="g10182-0-7-2-8">
        <g
           id="use10180-6-5-8-1"
           transform="matrix(0.26458333,0,0,0.26458333,168.11733,186.83483)">
          <path
             style="stroke:none"
             d="M 1.390625,-1.046875 C 1.578125,-0.34375 2.078125,0.125 2.78125,0.125 c 1.3125,0 2.6875,-1.5625 2.6875,-3.171875 0,-1.15625 -0.71875,-1.78125 -1.515625,-1.78125 C 3.09375,-4.828125 2,-4.0625 1.5,-2.65625 c -0.03125,0.109375 -0.6875,2.53125 -0.6875,3.5 0,0.546875 0.1875,1.0625 1.515625,1.0625 0.40625,0 0.625,-0.046875 1.0625,-0.046875 0.203125,0 0.21875,0 0.28125,0.015625 0.171875,0.015625 0.203125,0.015625 0.21875,0.109375 0.015625,0.0625 0.015625,0.125 0.140625,0.125 0.09375,0 0.15625,-0.03125 0.15625,-0.296875 0,-0.53125 -0.484375,-0.53125 -1.5625,-0.53125 -0.984375,0 -1.484375,0 -1.484375,-0.734375 0,-0.09375 0,-0.5 0.25,-1.59375 z M 2.78125,-0.125 c -0.34375,0 -0.796875,-0.25 -0.796875,-1.140625 0,-0.6875 0.3125,-1.78125 0.59375,-2.28125 0.453125,-0.765625 1,-1.03125 1.359375,-1.03125 0.40625,0 0.75,0.3125 0.75,1.0625 0,0.609375 -0.3125,1.828125 -0.609375,2.359375 -0.359375,0.6875 -0.875,1.03125 -1.296875,1.03125 z m 0,0"
             id="path1461-2-8-3-3" />
        </g>
      </g>
    </g>
    <text
       xml:space="preserve"
       style="font-size:4.32868px;line-height:100%;font-family:'Indie Flower';-inkscape-font-specification:'Indie Flower, Normal';letter-spacing:0px;word-spacing:0px;writing-mode:lr-tb;fill:#000000;fill-opacity:1;stroke:none;stroke-width:0.216433px;stroke-linecap:butt;stroke-linejoin:miter;stroke-opacity:1"
       x="96.389877"
       y="99.856552"
       id="text3971-7-8-1"><tspan
         sodipodi:role="line"
         id="tspan3969-0-0-1"
         style="fill:#000000;fill-opacity:1;stroke:none;stroke-width:0.216433px"
         x="96.389877"
         y="99.856552">1</tspan></text>
    <text
       xml:space="preserve"
       style="font-size:4.32868px;line-height:100%;font-family:'Indie Flower';-inkscape-font-specification:'Indie Flower, Normal';letter-spacing:0px;word-spacing:0px;writing-mode:lr-tb;fill:#000000;fill-opacity:1;stroke:none;stroke-width:0.216433px;stroke-linecap:butt;stroke-linejoin:miter;stroke-opacity:1"
       x="63.05238"
       y="70.223228"
       id="text3971-2-4-4-0"><tspan
         sodipodi:role="line"
         id="tspan3969-6-8-0-3"
         style="fill:#000000;fill-opacity:1;stroke:none;stroke-width:0.216433px"
         x="63.05238"
         y="70.223228">2</tspan></text>
    <g
       id="g7995-8-0-9-4"
       transform="matrix(0.50000006,0,0,0.50000006,41.010419,66.145826)"
       style="stroke:#0000ff">
      <path
         style="fill:none;fill-rule:evenodd;stroke:#0000ff;stroke-width:1.265;stroke-linecap:butt;stroke-linejoin:miter;stroke-miterlimit:4;stroke-dasharray:none;stroke-opacity:1"
         d="m 47.624999,55.562499 5.291667,5.291667"
         id="path7786-6-4-1-0" />
      <path
         style="fill:none;fill-rule:evenodd;stroke:#0000ff;stroke-width:1.265;stroke-linecap:butt;stroke-linejoin:miter;stroke-miterlimit:4;stroke-dasharray:none;stroke-opacity:1"
         d="M 52.916667,55.5625 47.625,60.854167"
         id="path7786-5-2-2-9-3" />
    </g>
    <path
       style="fill:none;fill-rule:evenodd;stroke:#000000;stroke-width:0.264583;stroke-linecap:butt;stroke-linejoin:miter;stroke-miterlimit:4;stroke-dasharray:1.05833, 1.05833;stroke-dashoffset:0;stroke-opacity:1"
       d="M 63.500004,97.895822 89.958338,71.437497"
       id="path8466-9"
       inkscape:path-effect="#path-effect8378"
       inkscape:original-d="M 63.500004,97.895822 C 72.319715,89.076651 81.139159,80.257206 89.958338,71.437497" />
    <path
       style="fill:#cccccc;fill-opacity:1;fill-rule:evenodd;stroke:#000000;stroke-width:0.264583px;stroke-linecap:butt;stroke-linejoin:miter;stroke-opacity:1"
       d="m 64.822924,35.71876 5.291663,-1.32293 10.583334,1.322916 5.291666,5.291666 2.645833,7.937504 -5.291666,5.291657 c -3.086806,3e-6 -6.173611,5e-6 -9.260417,7e-6 -3.086807,2e-6 -6.173615,3e-6 -9.260422,3e-6 L 62.177091,43.656257 Z"
       id="path1007-9-2-8-4-7-1-6"
       inkscape:path-effect="#path-effect9515"
       inkscape:original-d="m 64.822924,35.71876 5.291663,-1.32293 10.583334,1.322916 5.291666,5.291666 2.645833,7.937504 -5.291666,5.291657 -9.260417,7e-6 -9.260422,3e-6 -2.645824,-10.583326 z"
       sodipodi:nodetypes="cccccccccc" />
    <path
       style="fill:none;fill-rule:evenodd;stroke:#000000;stroke-width:0.264583px;stroke-linecap:butt;stroke-linejoin:miter;stroke-opacity:1"
       d="M 63.500003,52.916663 H 100.54167"
       id="path859-1-4-2-9"
       inkscape:path-effect="#path-effect9519"
       inkscape:original-d="m 63.500003,52.916663 c 12.589974,0.2166 24.694709,2.7e-4 37.041667,0" />
    <path
       style="fill:none;fill-rule:evenodd;stroke:#000000;stroke-width:0.264583px;stroke-linecap:butt;stroke-linejoin:miter;stroke-opacity:1"
       d="M 66.145838,55.562487 V 23.81251"
       id="path863-5-2-4-3"
       inkscape:path-effect="#path-effect9523"
       inkscape:original-d="m 66.145838,55.562487 c 2.64e-4,-10.583051 2.64e-4,-21.166381 0,-31.749977" />
    <path
       style="fill:none;fill-rule:evenodd;stroke:#008000;stroke-width:0.45961;stroke-linecap:butt;stroke-linejoin:miter;stroke-miterlimit:4;stroke-dasharray:none;stroke-opacity:1"
       d="m 81.491671,34.924995 c 0,0 0.803671,0.857334 0.803671,1.714668 0,0.857335 1.607341,-3.429337 1.607341,-3.429337"
       id="path7092-2-9-0-0-3"
       sodipodi:nodetypes="csc" />
    <g
       id="g10794-1-5-6-8"
       transform="matrix(1.9334681,0,0,1.9334681,-231.15478,-305.11162)">
      <g
         style="fill:#21353a;fill-opacity:1"
         id="g10182-4-5-2-0">
        <g
           id="use10180-9-2-9-5"
           transform="matrix(0.26458333,0,0,0.26458333,168.11733,186.83483)">
          <path
             style="stroke:none"
             d="M 1.390625,-1.046875 C 1.578125,-0.34375 2.078125,0.125 2.78125,0.125 c 1.3125,0 2.6875,-1.5625 2.6875,-3.171875 0,-1.15625 -0.71875,-1.78125 -1.515625,-1.78125 C 3.09375,-4.828125 2,-4.0625 1.5,-2.65625 c -0.03125,0.109375 -0.6875,2.53125 -0.6875,3.5 0,0.546875 0.1875,1.0625 1.515625,1.0625 0.40625,0 0.625,-0.046875 1.0625,-0.046875 0.203125,0 0.21875,0 0.28125,0.015625 0.171875,0.015625 0.203125,0.015625 0.21875,0.109375 0.015625,0.0625 0.015625,0.125 0.140625,0.125 0.09375,0 0.15625,-0.03125 0.15625,-0.296875 0,-0.53125 -0.484375,-0.53125 -1.5625,-0.53125 -0.984375,0 -1.484375,0 -1.484375,-0.734375 0,-0.09375 0,-0.5 0.25,-1.59375 z M 2.78125,-0.125 c -0.34375,0 -0.796875,-0.25 -0.796875,-1.140625 0,-0.6875 0.3125,-1.78125 0.59375,-2.28125 0.453125,-0.765625 1,-1.03125 1.359375,-1.03125 0.40625,0 0.75,0.3125 0.75,1.0625 0,0.609375 -0.3125,1.828125 -0.609375,2.359375 -0.359375,0.6875 -0.875,1.03125 -1.296875,1.03125 z m 0,0"
             id="path1461-1-9-9-6" />
        </g>
      </g>
    </g>
    <g
       id="g10794-4-0-0-0-6"
       transform="matrix(1.9334681,0,0,1.9334681,-263.96314,-335.27413)">
      <g
         style="fill:#21353a;fill-opacity:1"
         id="g10182-0-7-2-8-4">
        <g
           id="use10180-6-5-8-1-0"
           transform="matrix(0.26458333,0,0,0.26458333,168.11733,186.83483)">
          <path
             style="stroke:none"
             d="M 1.390625,-1.046875 C 1.578125,-0.34375 2.078125,0.125 2.78125,0.125 c 1.3125,0 2.6875,-1.5625 2.6875,-3.171875 0,-1.15625 -0.71875,-1.78125 -1.515625,-1.78125 C 3.09375,-4.828125 2,-4.0625 1.5,-2.65625 c -0.03125,0.109375 -0.6875,2.53125 -0.6875,3.5 0,0.546875 0.1875,1.0625 1.515625,1.0625 0.40625,0 0.625,-0.046875 1.0625,-0.046875 0.203125,0 0.21875,0 0.28125,0.015625 0.171875,0.015625 0.203125,0.015625 0.21875,0.109375 0.015625,0.0625 0.015625,0.125 0.140625,0.125 0.09375,0 0.15625,-0.03125 0.15625,-0.296875 0,-0.53125 -0.484375,-0.53125 -1.5625,-0.53125 -0.984375,0 -1.484375,0 -1.484375,-0.734375 0,-0.09375 0,-0.5 0.25,-1.59375 z M 2.78125,-0.125 c -0.34375,0 -0.796875,-0.25 -0.796875,-1.140625 0,-0.6875 0.3125,-1.78125 0.59375,-2.28125 0.453125,-0.765625 1,-1.03125 1.359375,-1.03125 0.40625,0 0.75,0.3125 0.75,1.0625 0,0.609375 -0.3125,1.828125 -0.609375,2.359375 -0.359375,0.6875 -0.875,1.03125 -1.296875,1.03125 z m 0,0"
             id="path1461-2-8-3-3-0" />
        </g>
      </g>
    </g>
    <text
       xml:space="preserve"
       style="font-size:4.32868px;line-height:100%;font-family:'Indie Flower';-inkscape-font-specification:'Indie Flower, Normal';letter-spacing:0px;word-spacing:0px;writing-mode:lr-tb;fill:#000000;fill-opacity:1;stroke:none;stroke-width:0.216433px;stroke-linecap:butt;stroke-linejoin:miter;stroke-opacity:1"
       x="96.389877"
       y="57.523232"
       id="text3971-7-8-1-4"><tspan
         sodipodi:role="line"
         id="tspan3969-0-0-1-6"
         style="fill:#000000;fill-opacity:1;stroke:none;stroke-width:0.216433px"
         x="96.389877"
         y="57.523232">1</tspan></text>
    <text
       xml:space="preserve"
       style="font-size:4.32868px;line-height:100%;font-family:'Indie Flower';-inkscape-font-specification:'Indie Flower, Normal';letter-spacing:0px;word-spacing:0px;writing-mode:lr-tb;fill:#000000;fill-opacity:1;stroke:none;stroke-width:0.216433px;stroke-linecap:butt;stroke-linejoin:miter;stroke-opacity:1"
       x="63.05238"
       y="27.889894"
       id="text3971-2-4-4-0-2"><tspan
         sodipodi:role="line"
         id="tspan3969-6-8-0-3-6"
         style="fill:#000000;fill-opacity:1;stroke:none;stroke-width:0.216433px"
         x="63.05238"
         y="27.889894">2</tspan></text>
    <g
       id="g7995-8-0-9-4-7"
       transform="matrix(0.50000006,0,0,0.50000006,41.010419,23.812491)"
       style="stroke:#0000ff">
      <path
         style="fill:none;fill-rule:evenodd;stroke:#0000ff;stroke-width:1.265;stroke-linecap:butt;stroke-linejoin:miter;stroke-miterlimit:4;stroke-dasharray:none;stroke-opacity:1"
         d="m 47.624999,55.562499 5.291667,5.291667"
         id="path7786-6-4-1-0-5" />
      <path
         style="fill:none;fill-rule:evenodd;stroke:#0000ff;stroke-width:1.265;stroke-linecap:butt;stroke-linejoin:miter;stroke-miterlimit:4;stroke-dasharray:none;stroke-opacity:1"
         d="M 52.916667,55.5625 47.625,60.854167"
         id="path7786-5-2-2-9-3-6" />
    </g>
    <path
       style="fill:none;fill-rule:evenodd;stroke:#000000;stroke-width:0.264583;stroke-linecap:butt;stroke-linejoin:miter;stroke-miterlimit:4;stroke-dasharray:1.05833, 1.05833;stroke-dashoffset:0;stroke-opacity:1"
       d="M 63.500004,55.562487 89.958338,29.104162"
       id="path8466-9-9"
       inkscape:path-effect="#path-effect9527"
       inkscape:original-d="M 63.500004,55.562487 C 72.319715,46.743316 81.139159,37.923871 89.958338,29.104162" />
    <path
       style="fill:#cccccc;fill-opacity:1;fill-rule:evenodd;stroke:#000000;stroke-width:0.266973px;stroke-linecap:butt;stroke-linejoin:miter;stroke-opacity:1"
       d="m 12.302458,27.075713 3.673426,-1.940298 7.346859,1.940277 3.673423,7.761113 1.836717,11.641673 -3.67343,7.761099 c -2.142832,4e-6 -4.285663,7e-6 -6.428495,9e-6 -2.142835,2e-6 -4.285671,4e-6 -6.428506,5e-6 L 10.465744,38.717376 Z"
       id="path1007-9-2-8-4-7-1-6-8"
       inkscape:path-effect="#path-effect9769"
       inkscape:original-d="m 12.302458,27.075713 3.673426,-1.940298 7.346859,1.940277 3.673423,7.761113 1.836717,11.641673 -3.67343,7.761099 -6.428495,9e-6 -6.428506,5e-6 -1.836708,-15.522215 z"
       sodipodi:nodetypes="cccccccccc" />
    <g
       id="g7995-8-0-9-4-7-2"
       transform="matrix(0.50000006,0,0,0.50000006,-11.906249,23.812491)"
       style="stroke:#0000ff">
      <path
         style="fill:none;fill-rule:evenodd;stroke:#0000ff;stroke-width:1.265;stroke-linecap:butt;stroke-linejoin:miter;stroke-miterlimit:4;stroke-dasharray:none;stroke-opacity:1"
         d="m 47.624999,55.562499 5.291667,5.291667"
         id="path7786-6-4-1-0-5-5" />
      <path
         style="fill:none;fill-rule:evenodd;stroke:#0000ff;stroke-width:1.265;stroke-linecap:butt;stroke-linejoin:miter;stroke-miterlimit:4;stroke-dasharray:none;stroke-opacity:1"
         d="M 52.916667,55.5625 47.625,60.854167"
         id="path7786-5-2-2-9-3-6-8" />
    </g>
    <path
       style="fill:none;fill-rule:evenodd;stroke:#000000;stroke-width:0.264583;stroke-linecap:butt;stroke-linejoin:miter;stroke-miterlimit:4;stroke-dasharray:1.05833, 1.05833;stroke-dashoffset:0;stroke-opacity:1"
       d="M 10.583333,55.562488 37.041666,29.104163"
       id="path8466-9-9-0"
       inkscape:path-effect="#path-effect11996"
       inkscape:original-d="M 10.583333,55.562488 C 19.403044,46.743317 28.222488,37.923872 37.041666,29.104163" />
    <path
       style="fill:none;fill-rule:evenodd;stroke:#000000;stroke-width:0.264583px;stroke-linecap:butt;stroke-linejoin:miter;stroke-opacity:1"
       d="M 10.583332,52.916663 H 47.625"
       id="path859-1-4-2-9-7"
       inkscape:path-effect="#path-effect9773"
       inkscape:original-d="m 10.583332,52.916663 c 12.589975,0.2166 24.69471,2.7e-4 37.041668,0" />
    <path
       style="fill:none;fill-rule:evenodd;stroke:#000000;stroke-width:0.264583px;stroke-linecap:butt;stroke-linejoin:miter;stroke-opacity:1"
       d="M 13.229167,55.562487 V 23.81251"
       id="path863-5-2-4-3-2"
       inkscape:path-effect="#path-effect9777"
       inkscape:original-d="m 13.229167,55.562487 c 2.64e-4,-10.583051 2.64e-4,-21.166381 0,-31.749977" />
    <g
       id="g10794-1-5-6-8-2"
       transform="matrix(1.9334681,0,0,1.9334681,-284.07148,-305.11162)">
      <g
         style="fill:#21353a;fill-opacity:1"
         id="g10182-4-5-2-0-9">
        <g
           id="use10180-9-2-9-5-9"
           transform="matrix(0.26458333,0,0,0.26458333,168.11733,186.83483)">
          <path
             style="stroke:none"
             d="M 1.390625,-1.046875 C 1.578125,-0.34375 2.078125,0.125 2.78125,0.125 c 1.3125,0 2.6875,-1.5625 2.6875,-3.171875 0,-1.15625 -0.71875,-1.78125 -1.515625,-1.78125 C 3.09375,-4.828125 2,-4.0625 1.5,-2.65625 c -0.03125,0.109375 -0.6875,2.53125 -0.6875,3.5 0,0.546875 0.1875,1.0625 1.515625,1.0625 0.40625,0 0.625,-0.046875 1.0625,-0.046875 0.203125,0 0.21875,0 0.28125,0.015625 0.171875,0.015625 0.203125,0.015625 0.21875,0.109375 0.015625,0.0625 0.015625,0.125 0.140625,0.125 0.09375,0 0.15625,-0.03125 0.15625,-0.296875 0,-0.53125 -0.484375,-0.53125 -1.5625,-0.53125 -0.984375,0 -1.484375,0 -1.484375,-0.734375 0,-0.09375 0,-0.5 0.25,-1.59375 z M 2.78125,-0.125 c -0.34375,0 -0.796875,-0.25 -0.796875,-1.140625 0,-0.6875 0.3125,-1.78125 0.59375,-2.28125 0.453125,-0.765625 1,-1.03125 1.359375,-1.03125 0.40625,0 0.75,0.3125 0.75,1.0625 0,0.609375 -0.3125,1.828125 -0.609375,2.359375 -0.359375,0.6875 -0.875,1.03125 -1.296875,1.03125 z m 0,0"
             id="path1461-1-9-9-6-6" />
        </g>
      </g>
    </g>
    <g
       id="g10794-4-0-0-0-6-0"
       transform="matrix(1.9334681,0,0,1.9334681,-316.87984,-335.27413)">
      <g
         style="fill:#21353a;fill-opacity:1"
         id="g10182-0-7-2-8-4-2">
        <g
           id="use10180-6-5-8-1-0-7"
           transform="matrix(0.26458333,0,0,0.26458333,168.11733,186.83483)">
          <path
             style="stroke:none"
             d="M 1.390625,-1.046875 C 1.578125,-0.34375 2.078125,0.125 2.78125,0.125 c 1.3125,0 2.6875,-1.5625 2.6875,-3.171875 0,-1.15625 -0.71875,-1.78125 -1.515625,-1.78125 C 3.09375,-4.828125 2,-4.0625 1.5,-2.65625 c -0.03125,0.109375 -0.6875,2.53125 -0.6875,3.5 0,0.546875 0.1875,1.0625 1.515625,1.0625 0.40625,0 0.625,-0.046875 1.0625,-0.046875 0.203125,0 0.21875,0 0.28125,0.015625 0.171875,0.015625 0.203125,0.015625 0.21875,0.109375 0.015625,0.0625 0.015625,0.125 0.140625,0.125 0.09375,0 0.15625,-0.03125 0.15625,-0.296875 0,-0.53125 -0.484375,-0.53125 -1.5625,-0.53125 -0.984375,0 -1.484375,0 -1.484375,-0.734375 0,-0.09375 0,-0.5 0.25,-1.59375 z M 2.78125,-0.125 c -0.34375,0 -0.796875,-0.25 -0.796875,-1.140625 0,-0.6875 0.3125,-1.78125 0.59375,-2.28125 0.453125,-0.765625 1,-1.03125 1.359375,-1.03125 0.40625,0 0.75,0.3125 0.75,1.0625 0,0.609375 -0.3125,1.828125 -0.609375,2.359375 -0.359375,0.6875 -0.875,1.03125 -1.296875,1.03125 z m 0,0"
             id="path1461-2-8-3-3-0-6" />
        </g>
      </g>
    </g>
    <text
       xml:space="preserve"
       style="font-size:4.32868px;line-height:100%;font-family:'Indie Flower';-inkscape-font-specification:'Indie Flower, Normal';letter-spacing:0px;word-spacing:0px;writing-mode:lr-tb;fill:#000000;fill-opacity:1;stroke:none;stroke-width:0.216433px;stroke-linecap:butt;stroke-linejoin:miter;stroke-opacity:1"
       x="43.473221"
       y="57.523232"
       id="text3971-7-8-1-4-1"><tspan
         sodipodi:role="line"
         id="tspan3969-0-0-1-6-3"
         style="fill:#000000;fill-opacity:1;stroke:none;stroke-width:0.216433px"
         x="43.473221"
         y="57.523232">1</tspan></text>
    <text
       xml:space="preserve"
       style="font-size:4.32868px;line-height:100%;font-family:'Indie Flower';-inkscape-font-specification:'Indie Flower, Normal';letter-spacing:0px;word-spacing:0px;writing-mode:lr-tb;fill:#000000;fill-opacity:1;stroke:none;stroke-width:0.216433px;stroke-linecap:butt;stroke-linejoin:miter;stroke-opacity:1"
       x="10.13571"
       y="27.889894"
       id="text3971-2-4-4-0-2-2"><tspan
         sodipodi:role="line"
         id="tspan3969-6-8-0-3-6-1"
         style="fill:#000000;fill-opacity:1;stroke:none;stroke-width:0.216433px"
         x="10.13571"
         y="27.889894">2</tspan></text>
    <path
       style="fill:none;fill-rule:evenodd;stroke:#000000;stroke-width:0.264583px;stroke-linecap:butt;stroke-linejoin:miter;stroke-opacity:1"
       d="m 75.406259,21.166662 c 0.51058,3.195226 1.39893,6.329919 2.640641,9.317947 0.981404,2.36163 2.212071,4.671214 4.037205,6.462676 1.829928,1.796168 4.167225,2.98402 6.540433,3.954969 2.988767,1.222792 6.099657,2.146866 9.271304,2.753992"
       id="path1000-6"
       inkscape:path-effect="#path-effect2439"
       inkscape:original-d="m 75.406259,21.166662 c 0.882209,3.087071 1.758961,6.231408 2.640641,9.317947 0.88168,3.086542 2.273581,4.699054 4.037205,6.462676 1.763624,1.763626 3.453894,3.073289 6.540433,3.954969 3.086542,0.88168 6.625735,2.313284 9.271304,2.753992"
       sodipodi:nodetypes="csssc" />
    <path
       style="fill:none;fill-rule:evenodd;stroke:#000000;stroke-width:0.264583px;stroke-linecap:butt;stroke-linejoin:miter;stroke-opacity:1"
       d="m 75.406259,63.499998 c 0.51058,3.195226 1.39893,6.329919 2.640641,9.317947 0.981404,2.36163 2.212071,4.671214 4.037205,6.462676 1.829928,1.796168 4.167225,2.98402 6.540433,3.954969 2.988767,1.222792 6.099657,2.146866 9.271304,2.753992"
       id="path1000-6-6"
       inkscape:path-effect="#path-effect2815"
       inkscape:original-d="m 75.406259,63.499998 c 0.882209,3.087071 1.758961,6.231408 2.640641,9.317947 0.88168,3.086542 2.273581,4.699054 4.037205,6.462676 1.763624,1.763626 3.453894,3.073289 6.540433,3.954969 3.086542,0.88168 6.625735,2.313284 9.271304,2.753992"
       sodipodi:nodetypes="csssc" />
    <path
       style="fill:none;fill-rule:evenodd;stroke:#000000;stroke-width:0.264583px;stroke-linecap:butt;stroke-linejoin:miter;stroke-opacity:1"
       d="m 22.489589,21.166662 c 0.51058,3.195226 1.39893,6.329919 2.640641,9.317947 0.981404,2.36163 2.212071,4.671214 4.037205,6.462676 1.829928,1.796168 4.167225,2.98402 6.540433,3.954969 2.988767,1.222792 6.099657,2.146866 9.271304,2.753992"
       id="path1000-6-4"
       inkscape:path-effect="#path-effect2554"
       inkscape:original-d="m 22.489589,21.166662 c 0.882209,3.087071 1.758961,6.231408 2.640641,9.317947 0.88168,3.086542 2.273581,4.699054 4.037205,6.462676 1.763624,1.763626 3.453894,3.073289 6.540433,3.954969 3.086542,0.88168 6.625735,2.313284 9.271304,2.753992"
       sodipodi:nodetypes="csssc" />
    <path
       style="fill:none;fill-rule:evenodd;stroke:#008000;stroke-width:0.45961;stroke-linecap:butt;stroke-linejoin:miter;stroke-miterlimit:4;stroke-dasharray:none;stroke-opacity:1"
       d="m 24.299112,28.049144 c 0,0 0.803671,0.857334 0.803671,1.714668 0,0.857335 1.607341,-3.429337 1.607341,-3.429337"
       id="path7092-2-9-0-0-3-6"
       sodipodi:nodetypes="csc" />
    <path
       style="fill:none;fill-rule:evenodd;stroke:#000000;stroke-width:0.264583px;stroke-linecap:butt;stroke-linejoin:miter;stroke-opacity:1"
       d="m 22.489589,63.499998 c 0.51058,3.195226 1.39893,6.329919 2.640641,9.317947 0.981404,2.36163 2.212071,4.671214 4.037205,6.462676 1.829928,1.796168 4.167225,2.98402 6.540433,3.954969 2.988767,1.222792 6.099657,2.146866 9.271304,2.753992"
       id="path1000-6-6-8"
       inkscape:path-effect="#path-effect3020"
       inkscape:original-d="m 22.489589,63.499998 c 0.882209,3.087071 1.758961,6.231408 2.640641,9.317947 0.88168,3.086542 2.273581,4.699054 4.037205,6.462676 1.763624,1.763626 3.453894,3.073289 6.540433,3.954969 3.086542,0.88168 6.625735,2.313284 9.271304,2.753992"
       sodipodi:nodetypes="csssc" />
  </g>
</svg>
