<?xml version="1.0" encoding="UTF-8" standalone="no"?>
<!-- Created with Inkscape (http://www.inkscape.org/) -->

<svg
   width="143.55008mm"
   height="34.032269mm"
   viewBox="0 0 143.55008 34.032269"
   version="1.1"
   id="svg5"
   inkscape:version="1.1.1 (3bf5ae0d25, 2021-09-20)"
   sodipodi:docname="nash_axiom_symmetry.svg"
   xmlns:inkscape="http://www.inkscape.org/namespaces/inkscape"
   xmlns:sodipodi="http://sodipodi.sourceforge.net/DTD/sodipodi-0.dtd"
   xmlns="http://www.w3.org/2000/svg"
   xmlns:svg="http://www.w3.org/2000/svg">
  <sodipodi:namedview
     id="namedview7"
     pagecolor="#ffffff"
     bordercolor="#666666"
     borderopacity="1.0"
     inkscape:pageshadow="2"
     inkscape:pageopacity="0.0"
     inkscape:pagecheckerboard="0"
     inkscape:document-units="mm"
     showgrid="true"
     inkscape:zoom="5.1671936"
     inkscape:cx="77.121168"
     inkscape:cy="57.865067"
     inkscape:window-width="1560"
     inkscape:window-height="831"
     inkscape:window-x="40"
     inkscape:window-y="32"
     inkscape:window-maximized="1"
     inkscape:current-layer="layer1"
     showguides="false"
     fit-margin-top="0"
     fit-margin-left="0"
     fit-margin-right="0"
     fit-margin-bottom="0">
    <inkscape:grid
       type="xygrid"
       id="grid824"
       originx="-8.5853258"
       originy="-65.828504" />
  </sodipodi:namedview>
  <defs
     id="defs2">
    <inkscape:path-effect
       effect="spiro"
       id="path-effect8598"
       is_visible="true"
       lpeversion="1" />
    <inkscape:path-effect
       effect="spiro"
       id="path-effect8468"
       is_visible="true"
       lpeversion="1" />
    <inkscape:path-effect
       effect="spiro"
       id="path-effect4245"
       is_visible="true"
       lpeversion="1" />
    <inkscape:path-effect
       effect="spiro"
       id="path-effect4241"
       is_visible="true"
       lpeversion="1" />
    <inkscape:path-effect
       effect="spiro"
       id="path-effect4237"
       is_visible="true"
       lpeversion="1" />
    <inkscape:path-effect
       effect="spiro"
       id="path-effect4233"
       is_visible="true"
       lpeversion="1" />
    <inkscape:path-effect
       effect="spiro"
       id="path-effect3771"
       is_visible="true"
       lpeversion="1" />
    <inkscape:path-effect
       effect="spiro"
       id="path-effect2575"
       is_visible="true"
       lpeversion="1" />
    <inkscape:path-effect
       effect="spiro"
       id="path-effect2460"
       is_visible="true"
       lpeversion="1" />
    <inkscape:path-effect
       effect="spiro"
       id="path-effect2407"
       is_visible="true"
       lpeversion="1" />
    <inkscape:path-effect
       effect="spiro"
       id="path-effect2403"
       is_visible="true"
       lpeversion="1" />
    <inkscape:path-effect
       effect="spiro"
       id="path-effect2399"
       is_visible="true"
       lpeversion="1" />
    <inkscape:path-effect
       effect="spiro"
       id="path-effect1897"
       is_visible="true"
       lpeversion="1" />
    <inkscape:path-effect
       effect="spiro"
       id="path-effect1020"
       is_visible="true"
       lpeversion="1" />
    <inkscape:path-effect
       effect="spiro"
       id="path-effect1016"
       is_visible="true"
       lpeversion="1" />
    <inkscape:path-effect
       effect="spiro"
       id="path-effect1012"
       is_visible="true"
       lpeversion="1" />
    <inkscape:path-effect
       effect="spiro"
       id="path-effect16882"
       is_visible="true"
       lpeversion="1" />
    <inkscape:path-effect
       effect="spiro"
       id="path-effect16878"
       is_visible="true"
       lpeversion="1" />
    <inkscape:path-effect
       effect="spiro"
       id="path-effect16874"
       is_visible="true"
       lpeversion="1" />
    <inkscape:path-effect
       effect="spiro"
       id="path-effect16870"
       is_visible="true"
       lpeversion="1" />
    <inkscape:path-effect
       effect="spiro"
       id="path-effect16866"
       is_visible="true"
       lpeversion="1" />
    <inkscape:path-effect
       effect="spiro"
       id="path-effect15875"
       is_visible="true"
       lpeversion="1" />
    <inkscape:path-effect
       effect="spiro"
       id="path-effect15646"
       is_visible="true"
       lpeversion="1" />
    <inkscape:path-effect
       effect="spiro"
       id="path-effect15426"
       is_visible="true"
       lpeversion="1" />
    <inkscape:path-effect
       effect="spiro"
       id="path-effect15422"
       is_visible="true"
       lpeversion="1" />
    <inkscape:path-effect
       effect="spiro"
       id="path-effect15418"
       is_visible="true"
       lpeversion="1" />
    <inkscape:path-effect
       effect="spiro"
       id="path-effect15414"
       is_visible="true"
       lpeversion="1" />
    <inkscape:path-effect
       effect="spiro"
       id="path-effect6441"
       is_visible="true"
       lpeversion="1" />
    <inkscape:path-effect
       effect="spiro"
       id="path-effect6221"
       is_visible="true"
       lpeversion="1" />
    <inkscape:path-effect
       effect="powerstroke"
       id="path-effect6176"
       is_visible="true"
       lpeversion="1"
       offset_points="0,1"
       not_jump="false"
       sort_points="true"
       interpolator_type="CubicBezierJohan"
       interpolator_beta="0.2"
       start_linecap_type="zerowidth"
       linejoin_type="extrp_arc"
       miter_limit="4"
       scale_width="1"
       end_linecap_type="zerowidth" />
    <inkscape:path-effect
       effect="powerstroke"
       id="path-effect6170"
       is_visible="true"
       lpeversion="1"
       offset_points="0,1"
       not_jump="false"
       sort_points="true"
       interpolator_type="CubicBezierJohan"
       interpolator_beta="0.2"
       start_linecap_type="zerowidth"
       linejoin_type="extrp_arc"
       miter_limit="4"
       scale_width="1"
       end_linecap_type="zerowidth" />
    <inkscape:path-effect
       effect="powerstroke"
       id="path-effect6164"
       is_visible="true"
       lpeversion="1"
       offset_points="0,1"
       not_jump="false"
       sort_points="true"
       interpolator_type="CubicBezierJohan"
       interpolator_beta="0.2"
       start_linecap_type="zerowidth"
       linejoin_type="extrp_arc"
       miter_limit="4"
       scale_width="1"
       end_linecap_type="zerowidth" />
    <inkscape:path-effect
       effect="spiro"
       id="path-effect5977"
       is_visible="true"
       lpeversion="1" />
    <inkscape:path-effect
       effect="spiro"
       id="path-effect1210"
       is_visible="true"
       lpeversion="1" />
    <inkscape:path-effect
       effect="spiro"
       id="path-effect1009"
       is_visible="true"
       lpeversion="1" />
    <inkscape:path-effect
       effect="spiro"
       id="path-effect865"
       is_visible="true"
       lpeversion="1" />
    <inkscape:path-effect
       effect="spiro"
       id="path-effect861"
       is_visible="true"
       lpeversion="1" />
  </defs>
  <g
     inkscape:label="Layer 1"
     inkscape:groupmode="layer"
     id="layer1"
     transform="translate(-8.5853299,-65.828502)">
    <g
       id="g10798"
       transform="matrix(1.4501011,0,0,1.4501011,-284.07145,-262.77825)" />
    <path
       style="fill:none;fill-rule:evenodd;stroke:#000000;stroke-width:0.264583px;stroke-linecap:butt;stroke-linejoin:miter;stroke-opacity:1"
       d="M 10.583336,95.250001 H 47.625004"
       id="path859-1-4"
       inkscape:path-effect="#path-effect4233"
       inkscape:original-d="m 10.583336,95.250001 c 12.589974,0.2166 24.694709,2.7e-4 37.041668,0" />
    <path
       style="fill:none;fill-rule:evenodd;stroke:#000000;stroke-width:0.264583px;stroke-linecap:butt;stroke-linejoin:miter;stroke-opacity:1"
       d="M 13.229171,97.895831 V 66.145847"
       id="path863-5-2"
       inkscape:path-effect="#path-effect4237"
       inkscape:original-d="m 13.229171,97.895831 c 2.64e-4,-10.583054 2.64e-4,-21.166388 0,-31.749984" />
    <path
       style="fill:#cccccc;fill-opacity:1;fill-rule:evenodd;stroke:#000000;stroke-width:0.264583px;stroke-linecap:butt;stroke-linejoin:miter;stroke-opacity:1"
       d="m 18.520841,71.437513 5.291663,-5.291665 7.9375,2.645833 7.9375,7.937484 2.645833,7.9375 -5.291666,5.291666 -7.9375,2.645834 L 18.520832,89.958334 15.875008,79.37501 Z"
       id="path1007-9-2-8"
       inkscape:path-effect="#path-effect8598"
       inkscape:original-d="m 18.520841,71.437513 5.291663,-5.291665 7.9375,2.645833 7.9375,7.937484 2.645833,7.9375 -5.291666,5.291666 -7.9375,2.645834 L 18.520832,89.958334 15.875008,79.37501 Z"
       sodipodi:nodetypes="cccccccccc" />
    <g
       id="g10794-1-5"
       transform="matrix(1.9334681,0,0,1.9334681,-284.07145,-262.77825)">
      <g
         style="fill:#21353a;fill-opacity:1"
         id="g10182-4-5">
        <g
           id="use10180-9-2"
           transform="matrix(0.26458333,0,0,0.26458333,168.11733,186.83483)">
          <path
             style="stroke:none"
             d="M 1.390625,-1.046875 C 1.578125,-0.34375 2.078125,0.125 2.78125,0.125 c 1.3125,0 2.6875,-1.5625 2.6875,-3.171875 0,-1.15625 -0.71875,-1.78125 -1.515625,-1.78125 C 3.09375,-4.828125 2,-4.0625 1.5,-2.65625 c -0.03125,0.109375 -0.6875,2.53125 -0.6875,3.5 0,0.546875 0.1875,1.0625 1.515625,1.0625 0.40625,0 0.625,-0.046875 1.0625,-0.046875 0.203125,0 0.21875,0 0.28125,0.015625 0.171875,0.015625 0.203125,0.015625 0.21875,0.109375 0.015625,0.0625 0.015625,0.125 0.140625,0.125 0.09375,0 0.15625,-0.03125 0.15625,-0.296875 0,-0.53125 -0.484375,-0.53125 -1.5625,-0.53125 -0.984375,0 -1.484375,0 -1.484375,-0.734375 0,-0.09375 0,-0.5 0.25,-1.59375 z M 2.78125,-0.125 c -0.34375,0 -0.796875,-0.25 -0.796875,-1.140625 0,-0.6875 0.3125,-1.78125 0.59375,-2.28125 0.453125,-0.765625 1,-1.03125 1.359375,-1.03125 0.40625,0 0.75,0.3125 0.75,1.0625 0,0.609375 -0.3125,1.828125 -0.609375,2.359375 -0.359375,0.6875 -0.875,1.03125 -1.296875,1.03125 z m 0,0"
             id="path1461-1-9" />
        </g>
      </g>
    </g>
    <g
       id="g10794-4-0-0"
       transform="matrix(1.9334681,0,0,1.9334681,-316.87981,-292.94076)">
      <g
         style="fill:#21353a;fill-opacity:1"
         id="g10182-0-7-2">
        <g
           id="use10180-6-5-8"
           transform="matrix(0.26458333,0,0,0.26458333,168.11733,186.83483)">
          <path
             style="stroke:none"
             d="M 1.390625,-1.046875 C 1.578125,-0.34375 2.078125,0.125 2.78125,0.125 c 1.3125,0 2.6875,-1.5625 2.6875,-3.171875 0,-1.15625 -0.71875,-1.78125 -1.515625,-1.78125 C 3.09375,-4.828125 2,-4.0625 1.5,-2.65625 c -0.03125,0.109375 -0.6875,2.53125 -0.6875,3.5 0,0.546875 0.1875,1.0625 1.515625,1.0625 0.40625,0 0.625,-0.046875 1.0625,-0.046875 0.203125,0 0.21875,0 0.28125,0.015625 0.171875,0.015625 0.203125,0.015625 0.21875,0.109375 0.015625,0.0625 0.015625,0.125 0.140625,0.125 0.09375,0 0.15625,-0.03125 0.15625,-0.296875 0,-0.53125 -0.484375,-0.53125 -1.5625,-0.53125 -0.984375,0 -1.484375,0 -1.484375,-0.734375 0,-0.09375 0,-0.5 0.25,-1.59375 z M 2.78125,-0.125 c -0.34375,0 -0.796875,-0.25 -0.796875,-1.140625 0,-0.6875 0.3125,-1.78125 0.59375,-2.28125 0.453125,-0.765625 1,-1.03125 1.359375,-1.03125 0.40625,0 0.75,0.3125 0.75,1.0625 0,0.609375 -0.3125,1.828125 -0.609375,2.359375 -0.359375,0.6875 -0.875,1.03125 -1.296875,1.03125 z m 0,0"
             id="path1461-2-8-3" />
        </g>
      </g>
    </g>
    <text
       xml:space="preserve"
       style="font-size:4.32868px;line-height:100%;font-family:'Indie Flower';-inkscape-font-specification:'Indie Flower, Normal';letter-spacing:0px;word-spacing:0px;writing-mode:lr-tb;fill:#000000;fill-opacity:1;stroke:none;stroke-width:0.216433px;stroke-linecap:butt;stroke-linejoin:miter;stroke-opacity:1"
       x="43.473213"
       y="99.85656"
       id="text3971-7-8"><tspan
         sodipodi:role="line"
         id="tspan3969-0-0"
         style="fill:#000000;fill-opacity:1;stroke:none;stroke-width:0.216433px"
         x="43.473213"
         y="99.85656">1</tspan></text>
    <text
       xml:space="preserve"
       style="font-size:4.32868px;line-height:100%;font-family:'Indie Flower';-inkscape-font-specification:'Indie Flower, Normal';letter-spacing:0px;word-spacing:0px;writing-mode:lr-tb;fill:#000000;fill-opacity:1;stroke:none;stroke-width:0.216433px;stroke-linecap:butt;stroke-linejoin:miter;stroke-opacity:1"
       x="10.135713"
       y="70.223228"
       id="text3971-2-4-4"><tspan
         sodipodi:role="line"
         id="tspan3969-6-8-0"
         style="fill:#000000;fill-opacity:1;stroke:none;stroke-width:0.216433px"
         x="10.135713"
         y="70.223228">2</tspan></text>
    <g
       id="g7995-8-0-9"
       transform="matrix(0.50000006,0,0,0.50000006,-2.6458306,56.885401)"
       style="stroke:#0000ff">
      <path
         style="fill:none;fill-rule:evenodd;stroke:#0000ff;stroke-width:1.265;stroke-linecap:butt;stroke-linejoin:miter;stroke-miterlimit:4;stroke-dasharray:none;stroke-opacity:1"
         d="m 47.624999,55.562499 5.291667,5.291667"
         id="path7786-6-4-1" />
      <path
         style="fill:none;fill-rule:evenodd;stroke:#0000ff;stroke-width:1.265;stroke-linecap:butt;stroke-linejoin:miter;stroke-miterlimit:4;stroke-dasharray:none;stroke-opacity:1"
         d="M 52.916667,55.5625 47.625,60.854167"
         id="path7786-5-2-2-9" />
    </g>
    <text
       style="font-variant:normal;font-weight:normal;font-size:3.84849px;font-family:CMSY10;-inkscape-font-specification:CMSY10;writing-mode:lr-tb;fill:#23373b;fill-opacity:1;fill-rule:nonzero;stroke:none;stroke-width:0.352778"
       id="text6399"
       x="16.897371"
       y="69.279083"><tspan
         x="16.897371"
         y="69.279083"
         id="tspan6397"
         style="stroke-width:0.352778">U</tspan></text>
    <path
       style="fill:none;fill-rule:evenodd;stroke:#008000;stroke-width:0.45961;stroke-linecap:butt;stroke-linejoin:miter;stroke-miterlimit:4;stroke-dasharray:none;stroke-opacity:1"
       d="m 34.925008,70.908348 c 0,0 0.803671,0.857334 0.803671,1.714668 0,0.857335 1.607341,-3.429337 1.607341,-3.429337"
       id="path7092-2-9-0"
       sodipodi:nodetypes="csc" />
    <path
       style="fill:none;fill-rule:evenodd;stroke:#000000;stroke-width:0.26458299;stroke-linecap:butt;stroke-linejoin:miter;stroke-opacity:1;stroke-miterlimit:4;stroke-dasharray:1.05833194,1.05833194;stroke-dashoffset:0"
       d="M 11.906254,96.572913 38.364586,70.114581"
       id="path8466"
       inkscape:path-effect="#path-effect8468"
       inkscape:original-d="M 11.906254,96.572913 C 20.725963,87.753735 29.545407,78.93429 38.364586,70.114581" />
  </g>
</svg>
