<?xml version="1.0" encoding="UTF-8" standalone="no"?>
<!-- Created with Inkscape (http://www.inkscape.org/) -->

<svg
   width="39.039673mm"
   height="34.296848mm"
   viewBox="0 0 39.039673 34.296849"
   version="1.1"
   id="svg5"
   inkscape:version="1.1.1 (3bf5ae0d25, 2021-09-20)"
   sodipodi:docname="simplex.svg.2022_01_02_10_37_05.0.svg"
   xmlns:inkscape="http://www.inkscape.org/namespaces/inkscape"
   xmlns:sodipodi="http://sodipodi.sourceforge.net/DTD/sodipodi-0.dtd"
   xmlns="http://www.w3.org/2000/svg"
   xmlns:svg="http://www.w3.org/2000/svg">
  <sodipodi:namedview
     id="namedview7"
     pagecolor="#ffffff"
     bordercolor="#666666"
     borderopacity="1.0"
     inkscape:pageshadow="2"
     inkscape:pageopacity="0.0"
     inkscape:pagecheckerboard="0"
     inkscape:document-units="mm"
     showgrid="true"
     inkscape:zoom="3.2611289"
     inkscape:cx="59.02864"
     inkscape:cy="69.301156"
     inkscape:window-width="1560"
     inkscape:window-height="831"
     inkscape:window-x="40"
     inkscape:window-y="32"
     inkscape:window-maximized="1"
     inkscape:current-layer="layer1"
     showguides="false"
     fit-margin-top="0"
     fit-margin-left="0"
     fit-margin-right="0"
     fit-margin-bottom="0">
    <inkscape:grid
       type="xygrid"
       id="grid824"
       originx="-60.179078"
       originy="-67.151435" />
  </sodipodi:namedview>
  <defs
     id="defs2">
    <inkscape:path-effect
       effect="spiro"
       id="path-effect3118"
       is_visible="true"
       lpeversion="1" />
    <inkscape:path-effect
       effect="spiro"
       id="path-effect3067"
       is_visible="true"
       lpeversion="1" />
    <inkscape:path-effect
       effect="spiro"
       id="path-effect3020"
       is_visible="true"
       lpeversion="1" />
    <inkscape:path-effect
       effect="spiro"
       id="path-effect2815"
       is_visible="true"
       lpeversion="1" />
    <inkscape:path-effect
       effect="spiro"
       id="path-effect2554"
       is_visible="true"
       lpeversion="1" />
    <inkscape:path-effect
       effect="spiro"
       id="path-effect2439"
       is_visible="true"
       lpeversion="1" />
    <inkscape:path-effect
       effect="spiro"
       id="path-effect1002"
       is_visible="true"
       lpeversion="1" />
    <inkscape:path-effect
       effect="spiro"
       id="path-effect11996"
       is_visible="true"
       lpeversion="1" />
    <inkscape:path-effect
       effect="spiro"
       id="path-effect9781"
       is_visible="true"
       lpeversion="1" />
    <inkscape:path-effect
       effect="spiro"
       id="path-effect9777"
       is_visible="true"
       lpeversion="1" />
    <inkscape:path-effect
       effect="spiro"
       id="path-effect9773"
       is_visible="true"
       lpeversion="1" />
    <inkscape:path-effect
       effect="spiro"
       id="path-effect9769"
       is_visible="true"
       lpeversion="1" />
    <inkscape:path-effect
       effect="spiro"
       id="path-effect9527"
       is_visible="true"
       lpeversion="1" />
    <inkscape:path-effect
       effect="spiro"
       id="path-effect9523"
       is_visible="true"
       lpeversion="1" />
    <inkscape:path-effect
       effect="spiro"
       id="path-effect9519"
       is_visible="true"
       lpeversion="1" />
    <inkscape:path-effect
       effect="spiro"
       id="path-effect9515"
       is_visible="true"
       lpeversion="1" />
    <inkscape:path-effect
       effect="spiro"
       id="path-effect9511"
       is_visible="true"
       lpeversion="1" />
    <inkscape:path-effect
       effect="spiro"
       id="path-effect8729"
       is_visible="true"
       lpeversion="1" />
    <inkscape:path-effect
       effect="spiro"
       id="path-effect8378"
       is_visible="true"
       lpeversion="1" />
    <inkscape:path-effect
       effect="spiro"
       id="path-effect8374"
       is_visible="true"
       lpeversion="1" />
    <inkscape:path-effect
       effect="spiro"
       id="path-effect8370"
       is_visible="true"
       lpeversion="1" />
    <inkscape:path-effect
       effect="spiro"
       id="path-effect8366"
       is_visible="true"
       lpeversion="1" />
    <inkscape:path-effect
       effect="spiro"
       id="path-effect8014"
       is_visible="true"
       lpeversion="1" />
    <marker
       style="overflow:visible"
       id="Arrow1Mend"
       refX="0"
       refY="0"
       orient="auto"
       inkscape:stockid="Arrow1Mend"
       inkscape:isstock="true">
      <path
         transform="matrix(-0.4,0,0,-0.4,-4,0)"
         style="fill:context-stroke;fill-rule:evenodd;stroke:context-stroke;stroke-width:1pt"
         d="M 0,0 5,-5 -12.5,0 5,5 Z"
         id="path2162" />
    </marker>
    <inkscape:path-effect
       effect="spiro"
       id="path-effect2151"
       is_visible="true"
       lpeversion="1" />
    <inkscape:path-effect
       effect="spiro"
       id="path-effect4245"
       is_visible="true"
       lpeversion="1" />
    <inkscape:path-effect
       effect="spiro"
       id="path-effect4241"
       is_visible="true"
       lpeversion="1" />
    <inkscape:path-effect
       effect="spiro"
       id="path-effect4237"
       is_visible="true"
       lpeversion="1" />
    <inkscape:path-effect
       effect="spiro"
       id="path-effect4233"
       is_visible="true"
       lpeversion="1" />
    <inkscape:path-effect
       effect="spiro"
       id="path-effect3771"
       is_visible="true"
       lpeversion="1" />
    <inkscape:path-effect
       effect="spiro"
       id="path-effect2575"
       is_visible="true"
       lpeversion="1" />
    <inkscape:path-effect
       effect="spiro"
       id="path-effect2460"
       is_visible="true"
       lpeversion="1" />
    <inkscape:path-effect
       effect="spiro"
       id="path-effect2407"
       is_visible="true"
       lpeversion="1" />
    <inkscape:path-effect
       effect="spiro"
       id="path-effect2403"
       is_visible="true"
       lpeversion="1" />
    <inkscape:path-effect
       effect="spiro"
       id="path-effect2399"
       is_visible="true"
       lpeversion="1" />
    <inkscape:path-effect
       effect="spiro"
       id="path-effect1897"
       is_visible="true"
       lpeversion="1" />
    <inkscape:path-effect
       effect="spiro"
       id="path-effect1020"
       is_visible="true"
       lpeversion="1" />
    <inkscape:path-effect
       effect="spiro"
       id="path-effect1016"
       is_visible="true"
       lpeversion="1" />
    <inkscape:path-effect
       effect="spiro"
       id="path-effect1012"
       is_visible="true"
       lpeversion="1" />
    <inkscape:path-effect
       effect="spiro"
       id="path-effect16882"
       is_visible="true"
       lpeversion="1" />
    <inkscape:path-effect
       effect="spiro"
       id="path-effect16878"
       is_visible="true"
       lpeversion="1" />
    <inkscape:path-effect
       effect="spiro"
       id="path-effect16874"
       is_visible="true"
       lpeversion="1" />
    <inkscape:path-effect
       effect="spiro"
       id="path-effect16870"
       is_visible="true"
       lpeversion="1" />
    <inkscape:path-effect
       effect="spiro"
       id="path-effect16866"
       is_visible="true"
       lpeversion="1" />
    <inkscape:path-effect
       effect="spiro"
       id="path-effect15875"
       is_visible="true"
       lpeversion="1" />
    <inkscape:path-effect
       effect="spiro"
       id="path-effect15646"
       is_visible="true"
       lpeversion="1" />
    <inkscape:path-effect
       effect="spiro"
       id="path-effect15426"
       is_visible="true"
       lpeversion="1" />
    <inkscape:path-effect
       effect="spiro"
       id="path-effect15422"
       is_visible="true"
       lpeversion="1" />
    <inkscape:path-effect
       effect="spiro"
       id="path-effect15418"
       is_visible="true"
       lpeversion="1" />
    <inkscape:path-effect
       effect="spiro"
       id="path-effect15414"
       is_visible="true"
       lpeversion="1" />
    <inkscape:path-effect
       effect="spiro"
       id="path-effect6441"
       is_visible="true"
       lpeversion="1" />
    <inkscape:path-effect
       effect="spiro"
       id="path-effect6221"
       is_visible="true"
       lpeversion="1" />
    <inkscape:path-effect
       effect="powerstroke"
       id="path-effect6176"
       is_visible="true"
       lpeversion="1"
       offset_points="0,1"
       not_jump="false"
       sort_points="true"
       interpolator_type="CubicBezierJohan"
       interpolator_beta="0.2"
       start_linecap_type="zerowidth"
       linejoin_type="extrp_arc"
       miter_limit="4"
       scale_width="1"
       end_linecap_type="zerowidth" />
    <inkscape:path-effect
       effect="powerstroke"
       id="path-effect6170"
       is_visible="true"
       lpeversion="1"
       offset_points="0,1"
       not_jump="false"
       sort_points="true"
       interpolator_type="CubicBezierJohan"
       interpolator_beta="0.2"
       start_linecap_type="zerowidth"
       linejoin_type="extrp_arc"
       miter_limit="4"
       scale_width="1"
       end_linecap_type="zerowidth" />
    <inkscape:path-effect
       effect="powerstroke"
       id="path-effect6164"
       is_visible="true"
       lpeversion="1"
       offset_points="0,1"
       not_jump="false"
       sort_points="true"
       interpolator_type="CubicBezierJohan"
       interpolator_beta="0.2"
       start_linecap_type="zerowidth"
       linejoin_type="extrp_arc"
       miter_limit="4"
       scale_width="1"
       end_linecap_type="zerowidth" />
    <inkscape:path-effect
       effect="spiro"
       id="path-effect5977"
       is_visible="true"
       lpeversion="1" />
    <inkscape:path-effect
       effect="spiro"
       id="path-effect1210"
       is_visible="true"
       lpeversion="1" />
    <inkscape:path-effect
       effect="spiro"
       id="path-effect1009"
       is_visible="true"
       lpeversion="1" />
    <inkscape:path-effect
       effect="spiro"
       id="path-effect865"
       is_visible="true"
       lpeversion="1" />
    <inkscape:path-effect
       effect="spiro"
       id="path-effect861"
       is_visible="true"
       lpeversion="1" />
    <inkscape:path-effect
       effect="spiro"
       id="path-effect8598"
       is_visible="true"
       lpeversion="1" />
    <inkscape:path-effect
       effect="spiro"
       id="path-effect8468"
       is_visible="true"
       lpeversion="1" />
    <marker
       style="overflow:visible"
       id="Arrow1Mend-4"
       refX="0"
       refY="0"
       orient="auto"
       inkscape:stockid="Arrow1Mend"
       inkscape:isstock="true">
      <path
         transform="matrix(-0.4,0,0,-0.4,-4,0)"
         style="fill:context-stroke;fill-rule:evenodd;stroke:context-stroke;stroke-width:1pt"
         d="M 0,0 5,-5 -12.5,0 5,5 Z"
         id="path2162-7" />
    </marker>
    <marker
       style="overflow:visible"
       id="Arrow1Mend-4-4"
       refX="0"
       refY="0"
       orient="auto"
       inkscape:stockid="Arrow1Mend"
       inkscape:isstock="true">
      <path
         transform="matrix(-0.4,0,0,-0.4,-4,0)"
         style="fill:context-stroke;fill-rule:evenodd;stroke:context-stroke;stroke-width:1pt"
         d="M 0,0 5,-5 -12.5,0 5,5 Z"
         id="path2162-7-0" />
    </marker>
  </defs>
  <g
     inkscape:label="Layer 1"
     inkscape:groupmode="layer"
     id="layer1"
     transform="translate(-60.17908,-67.151432)">
    <g
       id="g10798"
       transform="matrix(1.4501011,0,0,1.4501011,-284.07145,-262.77825)" />
    <path
       style="fill:#cccccc;fill-opacity:1;fill-rule:evenodd;stroke:#000000;stroke-width:0.264583px;stroke-linecap:butt;stroke-linejoin:miter;stroke-opacity:1"
       d="m 64.822924,78.052095 1.322914,-0.793765 c 0.527151,-0.09977 1.056487,-0.187989 1.5875,-0.264583 0.790594,-0.114037 1.584906,-0.202293 2.381249,-0.264582 l 2.381251,-10e-7 2.645833,0.264583 5.55625,1.058334 3.96875,5.291666 -1.322917,7.9375 -3.96875,5.291667 -14.552089,4e-6 z"
       id="path1007-9-2-8-4-7-1"
       inkscape:path-effect="#path-effect8729"
       inkscape:original-d="m 64.822924,78.052095 1.322914,-0.793765 1.5875,-0.264583 2.381249,-0.264582 2.381251,-10e-7 2.645833,0.264583 5.55625,1.058334 3.96875,5.291666 -1.322917,7.9375 -3.96875,5.291667 c -6.173613,6e-6 -8.378476,2e-6 -14.552089,4e-6 -2.957229,-7.301352 -2.342007,-11.494776 9e-6,-18.520823 z"
       sodipodi:nodetypes="cccccccccccc" />
    <path
       style="fill:none;fill-rule:evenodd;stroke:#000000;stroke-width:0.264583px;stroke-linecap:butt;stroke-linejoin:miter;stroke-opacity:1"
       d="M 62.177088,96.572914 H 99.218752"
       id="path859-1-4-2"
       inkscape:path-effect="#path-effect8370"
       inkscape:original-d="m 62.177088,96.572914 c 12.589974,0.2166 24.694709,2.7e-4 37.041664,0" />
    <path
       style="fill:none;fill-rule:evenodd;stroke:#000000;stroke-width:0.264583px;stroke-linecap:butt;stroke-linejoin:miter;stroke-opacity:1"
       d="M 64.822923,99.218738 V 67.468761"
       id="path863-5-2-4"
       inkscape:path-effect="#path-effect8374"
       inkscape:original-d="m 64.822923,99.218738 c 2.64e-4,-10.583051 2.64e-4,-21.166381 0,-31.749977" />
    <path
       style="fill:none;fill-rule:evenodd;stroke:#008000;stroke-width:0.45961;stroke-linecap:butt;stroke-linejoin:miter;stroke-miterlimit:4;stroke-dasharray:none;stroke-opacity:1"
       d="m 79.90417,76.199996 c 0,0 0.803671,0.857334 0.803671,1.714668 0,0.857335 1.607341,-3.429337 1.607341,-3.429337"
       id="path7092-2-9-0-0"
       sodipodi:nodetypes="csc" />
    <g
       id="g10794-1-5-6"
       transform="matrix(1.9334681,0,0,1.9334681,-232.4777,-261.45535)">
      <g
         style="fill:#21353a;fill-opacity:1"
         id="g10182-4-5-2">
        <g
           id="use10180-9-2-9"
           transform="matrix(0.26458333,0,0,0.26458333,168.11733,186.83483)">
          <path
             style="stroke:none"
             d="M 1.390625,-1.046875 C 1.578125,-0.34375 2.078125,0.125 2.78125,0.125 c 1.3125,0 2.6875,-1.5625 2.6875,-3.171875 0,-1.15625 -0.71875,-1.78125 -1.515625,-1.78125 C 3.09375,-4.828125 2,-4.0625 1.5,-2.65625 c -0.03125,0.109375 -0.6875,2.53125 -0.6875,3.5 0,0.546875 0.1875,1.0625 1.515625,1.0625 0.40625,0 0.625,-0.046875 1.0625,-0.046875 0.203125,0 0.21875,0 0.28125,0.015625 0.171875,0.015625 0.203125,0.015625 0.21875,0.109375 0.015625,0.0625 0.015625,0.125 0.140625,0.125 0.09375,0 0.15625,-0.03125 0.15625,-0.296875 0,-0.53125 -0.484375,-0.53125 -1.5625,-0.53125 -0.984375,0 -1.484375,0 -1.484375,-0.734375 0,-0.09375 0,-0.5 0.25,-1.59375 z M 2.78125,-0.125 c -0.34375,0 -0.796875,-0.25 -0.796875,-1.140625 0,-0.6875 0.3125,-1.78125 0.59375,-2.28125 0.453125,-0.765625 1,-1.03125 1.359375,-1.03125 0.40625,0 0.75,0.3125 0.75,1.0625 0,0.609375 -0.3125,1.828125 -0.609375,2.359375 -0.359375,0.6875 -0.875,1.03125 -1.296875,1.03125 z m 0,0"
             id="path1461-1-9-9" />
        </g>
      </g>
    </g>
    <g
       id="g10794-4-0-0-0"
       transform="matrix(1.9334681,0,0,1.9334681,-265.28606,-291.61786)">
      <g
         style="fill:#21353a;fill-opacity:1"
         id="g10182-0-7-2-8">
        <g
           id="use10180-6-5-8-1"
           transform="matrix(0.26458333,0,0,0.26458333,168.11733,186.83483)">
          <path
             style="stroke:none"
             d="M 1.390625,-1.046875 C 1.578125,-0.34375 2.078125,0.125 2.78125,0.125 c 1.3125,0 2.6875,-1.5625 2.6875,-3.171875 0,-1.15625 -0.71875,-1.78125 -1.515625,-1.78125 C 3.09375,-4.828125 2,-4.0625 1.5,-2.65625 c -0.03125,0.109375 -0.6875,2.53125 -0.6875,3.5 0,0.546875 0.1875,1.0625 1.515625,1.0625 0.40625,0 0.625,-0.046875 1.0625,-0.046875 0.203125,0 0.21875,0 0.28125,0.015625 0.171875,0.015625 0.203125,0.015625 0.21875,0.109375 0.015625,0.0625 0.015625,0.125 0.140625,0.125 0.09375,0 0.15625,-0.03125 0.15625,-0.296875 0,-0.53125 -0.484375,-0.53125 -1.5625,-0.53125 -0.984375,0 -1.484375,0 -1.484375,-0.734375 0,-0.09375 0,-0.5 0.25,-1.59375 z M 2.78125,-0.125 c -0.34375,0 -0.796875,-0.25 -0.796875,-1.140625 0,-0.6875 0.3125,-1.78125 0.59375,-2.28125 0.453125,-0.765625 1,-1.03125 1.359375,-1.03125 0.40625,0 0.75,0.3125 0.75,1.0625 0,0.609375 -0.3125,1.828125 -0.609375,2.359375 -0.359375,0.6875 -0.875,1.03125 -1.296875,1.03125 z m 0,0"
             id="path1461-2-8-3-3" />
        </g>
      </g>
    </g>
    <text
       xml:space="preserve"
       style="font-size:4.32868px;line-height:100%;font-family:'Indie Flower';-inkscape-font-specification:'Indie Flower, Normal';letter-spacing:0px;word-spacing:0px;writing-mode:lr-tb;fill:#000000;fill-opacity:1;stroke:none;stroke-width:0.216433px;stroke-linecap:butt;stroke-linejoin:miter;stroke-opacity:1"
       x="95.331543"
       y="101.44405"
       id="text3971-7-8-1"><tspan
         sodipodi:role="line"
         id="tspan3969-0-0-1"
         style="fill:#000000;fill-opacity:1;stroke:none;stroke-width:0.216433px"
         x="95.331543"
         y="101.44405">1</tspan></text>
    <text
       xml:space="preserve"
       style="font-size:4.32868px;line-height:100%;font-family:'Indie Flower';-inkscape-font-specification:'Indie Flower, Normal';letter-spacing:0px;word-spacing:0px;writing-mode:lr-tb;fill:#000000;fill-opacity:1;stroke:none;stroke-width:0.216433px;stroke-linecap:butt;stroke-linejoin:miter;stroke-opacity:1"
       x="61.994045"
       y="70.752396"
       id="text3971-2-4-4-0"><tspan
         sodipodi:role="line"
         id="tspan3969-6-8-0-3"
         style="fill:#000000;fill-opacity:1;stroke:none;stroke-width:0.216433px"
         x="61.994045"
         y="70.752396">2</tspan></text>
    <path
       style="fill:none;fill-rule:evenodd;stroke:#000000;stroke-width:0.264583;stroke-linecap:butt;stroke-linejoin:miter;stroke-miterlimit:4;stroke-dasharray:1.05833, 1.05833;stroke-dashoffset:0;stroke-opacity:1"
       d="M 98.276286,83.079163 62.369903,72.552147"
       id="path8466-9"
       inkscape:path-effect="#path-effect8378"
       inkscape:original-d="M 98.276286,83.079163 C 86.307387,79.570523 74.338592,76.061515 62.369903,72.552147" />
  </g>
</svg>
