<?xml version="1.0" encoding="UTF-8" standalone="no"?>
<!-- Created with Inkscape (http://www.inkscape.org/) -->

<svg
   width="143.55008mm"
   height="34.032269mm"
   viewBox="0 0 143.55008 34.032269"
   version="1.1"
   id="svg5"
   inkscape:version="1.1.1 (3bf5ae0d25, 2021-09-20)"
   sodipodi:docname="social.svg"
   xmlns:inkscape="http://www.inkscape.org/namespaces/inkscape"
   xmlns:sodipodi="http://sodipodi.sourceforge.net/DTD/sodipodi-0.dtd"
   xmlns="http://www.w3.org/2000/svg"
   xmlns:svg="http://www.w3.org/2000/svg">
  <sodipodi:namedview
     id="namedview7"
     pagecolor="#ffffff"
     bordercolor="#666666"
     borderopacity="1.0"
     inkscape:pageshadow="2"
     inkscape:pageopacity="0.0"
     inkscape:pagecheckerboard="0"
     inkscape:document-units="mm"
     showgrid="true"
     inkscape:zoom="2.4149328"
     inkscape:cx="207.25214"
     inkscape:cy="52.589455"
     inkscape:window-width="1560"
     inkscape:window-height="831"
     inkscape:window-x="40"
     inkscape:window-y="32"
     inkscape:window-maximized="1"
     inkscape:current-layer="layer1"
     showguides="false"
     fit-margin-top="0"
     fit-margin-left="0"
     fit-margin-right="0"
     fit-margin-bottom="0">
    <inkscape:grid
       type="xygrid"
       id="grid824"
       originx="-8.5853258"
       originy="-65.828504" />
  </sodipodi:namedview>
  <defs
     id="defs2">
    <inkscape:path-effect
       effect="spiro"
       id="path-effect16882"
       is_visible="true"
       lpeversion="1" />
    <inkscape:path-effect
       effect="spiro"
       id="path-effect16878"
       is_visible="true"
       lpeversion="1" />
    <inkscape:path-effect
       effect="spiro"
       id="path-effect16874"
       is_visible="true"
       lpeversion="1" />
    <inkscape:path-effect
       effect="spiro"
       id="path-effect16870"
       is_visible="true"
       lpeversion="1" />
    <inkscape:path-effect
       effect="spiro"
       id="path-effect16866"
       is_visible="true"
       lpeversion="1" />
    <inkscape:path-effect
       effect="spiro"
       id="path-effect15875"
       is_visible="true"
       lpeversion="1" />
    <inkscape:path-effect
       effect="spiro"
       id="path-effect15646"
       is_visible="true"
       lpeversion="1" />
    <inkscape:path-effect
       effect="spiro"
       id="path-effect15426"
       is_visible="true"
       lpeversion="1" />
    <inkscape:path-effect
       effect="spiro"
       id="path-effect15422"
       is_visible="true"
       lpeversion="1" />
    <inkscape:path-effect
       effect="spiro"
       id="path-effect15418"
       is_visible="true"
       lpeversion="1" />
    <inkscape:path-effect
       effect="spiro"
       id="path-effect15414"
       is_visible="true"
       lpeversion="1" />
    <inkscape:path-effect
       effect="spiro"
       id="path-effect6441"
       is_visible="true"
       lpeversion="1" />
    <inkscape:path-effect
       effect="spiro"
       id="path-effect6221"
       is_visible="true"
       lpeversion="1" />
    <inkscape:path-effect
       effect="powerstroke"
       id="path-effect6176"
       is_visible="true"
       lpeversion="1"
       offset_points="0,1"
       not_jump="false"
       sort_points="true"
       interpolator_type="CubicBezierJohan"
       interpolator_beta="0.2"
       start_linecap_type="zerowidth"
       linejoin_type="extrp_arc"
       miter_limit="4"
       scale_width="1"
       end_linecap_type="zerowidth" />
    <inkscape:path-effect
       effect="powerstroke"
       id="path-effect6170"
       is_visible="true"
       lpeversion="1"
       offset_points="0,1"
       not_jump="false"
       sort_points="true"
       interpolator_type="CubicBezierJohan"
       interpolator_beta="0.2"
       start_linecap_type="zerowidth"
       linejoin_type="extrp_arc"
       miter_limit="4"
       scale_width="1"
       end_linecap_type="zerowidth" />
    <inkscape:path-effect
       effect="powerstroke"
       id="path-effect6164"
       is_visible="true"
       lpeversion="1"
       offset_points="0,1"
       not_jump="false"
       sort_points="true"
       interpolator_type="CubicBezierJohan"
       interpolator_beta="0.2"
       start_linecap_type="zerowidth"
       linejoin_type="extrp_arc"
       miter_limit="4"
       scale_width="1"
       end_linecap_type="zerowidth" />
    <inkscape:path-effect
       effect="spiro"
       id="path-effect5977"
       is_visible="true"
       lpeversion="1" />
    <inkscape:path-effect
       effect="spiro"
       id="path-effect1210"
       is_visible="true"
       lpeversion="1" />
    <inkscape:path-effect
       effect="spiro"
       id="path-effect1009"
       is_visible="true"
       lpeversion="1" />
    <inkscape:path-effect
       effect="spiro"
       id="path-effect865"
       is_visible="true"
       lpeversion="1" />
    <inkscape:path-effect
       effect="spiro"
       id="path-effect861"
       is_visible="true"
       lpeversion="1" />
  </defs>
  <g
     inkscape:label="Layer 1"
     inkscape:groupmode="layer"
     id="layer1"
     transform="translate(-8.5853299,-65.828502)">
    <path
       style="fill:none;fill-rule:evenodd;stroke:#000000;stroke-width:0.264583px;stroke-linecap:butt;stroke-linejoin:miter;stroke-opacity:1"
       d="M 10.583333,95.249999 H 47.624999"
       id="path859"
       inkscape:path-effect="#path-effect861"
       inkscape:original-d="m 10.583333,95.249999 c 12.589973,0.216598 24.694708,2.64e-4 37.041666,0" />
    <path
       style="fill:none;fill-rule:evenodd;stroke:#000000;stroke-width:0.264583px;stroke-linecap:butt;stroke-linejoin:miter;stroke-opacity:1"
       d="m 13.229167,97.895832 v -31.75"
       id="path863"
       inkscape:path-effect="#path-effect865"
       inkscape:original-d="m 13.229167,97.895832 c 2.64e-4,-10.583069 2.64e-4,-21.166402 0,-31.75" />
    <path
       style="fill:#cccccc;fill-opacity:1;fill-rule:evenodd;stroke:#000000;stroke-width:0.264583px;stroke-linecap:butt;stroke-linejoin:miter;stroke-opacity:1"
       d="m 13.229167,71.4375 h 5.291666 l 7.9375,2.645833 10.583334,7.9375 -7e-6,13.229159 H 13.229161 Z"
       id="path1007"
       inkscape:path-effect="#path-effect1009"
       inkscape:original-d="m 13.229167,71.4375 h 5.291666 l 7.9375,2.645833 10.583334,7.9375 -7e-6,13.229159 H 13.229161 Z"
       sodipodi:nodetypes="ccccccc" />
    <path
       style="opacity:0.573712;fill:none;fill-opacity:1;fill-rule:evenodd;stroke:#008000;stroke-width:0.965;stroke-linecap:butt;stroke-linejoin:miter;stroke-miterlimit:4;stroke-dasharray:none;stroke-opacity:1"
       d="m 18.520833,71.437499 7.9375,2.645833 10.583333,7.9375"
       id="path1208"
       inkscape:path-effect="#path-effect1210"
       inkscape:original-d="m 18.520833,71.437499 c 2.646098,0.882208 7.9375,2.645833 7.9375,2.645833 0,0 10.583333,7.9375 10.583333,7.9375" />
    <path
       style="fill:none;fill-rule:evenodd;stroke:#008000;stroke-width:0.45961;stroke-linecap:butt;stroke-linejoin:miter;stroke-miterlimit:4;stroke-dasharray:none;stroke-opacity:1"
       d="m 35.983334,79.374999 c 0,0 0.803671,0.857334 0.803671,1.714668 0,0.857335 1.607341,-3.429337 1.607341,-3.429337"
       id="path7092-2"
       sodipodi:nodetypes="csc" />
    <g
       id="g10794"
       transform="matrix(1.9334681,0,0,1.9334681,-284.07145,-262.77825)">
      <g
         style="fill:#21353a;fill-opacity:1"
         id="g10182">
        <g
           id="use10180"
           transform="matrix(0.26458333,0,0,0.26458333,168.11733,186.83483)">
          <path
             style="stroke:none"
             d="M 1.390625,-1.046875 C 1.578125,-0.34375 2.078125,0.125 2.78125,0.125 c 1.3125,0 2.6875,-1.5625 2.6875,-3.171875 0,-1.15625 -0.71875,-1.78125 -1.515625,-1.78125 C 3.09375,-4.828125 2,-4.0625 1.5,-2.65625 c -0.03125,0.109375 -0.6875,2.53125 -0.6875,3.5 0,0.546875 0.1875,1.0625 1.515625,1.0625 0.40625,0 0.625,-0.046875 1.0625,-0.046875 0.203125,0 0.21875,0 0.28125,0.015625 0.171875,0.015625 0.203125,0.015625 0.21875,0.109375 0.015625,0.0625 0.015625,0.125 0.140625,0.125 0.09375,0 0.15625,-0.03125 0.15625,-0.296875 0,-0.53125 -0.484375,-0.53125 -1.5625,-0.53125 -0.984375,0 -1.484375,0 -1.484375,-0.734375 0,-0.09375 0,-0.5 0.25,-1.59375 z M 2.78125,-0.125 c -0.34375,0 -0.796875,-0.25 -0.796875,-1.140625 0,-0.6875 0.3125,-1.78125 0.59375,-2.28125 0.453125,-0.765625 1,-1.03125 1.359375,-1.03125 0.40625,0 0.75,0.3125 0.75,1.0625 0,0.609375 -0.3125,1.828125 -0.609375,2.359375 -0.359375,0.6875 -0.875,1.03125 -1.296875,1.03125 z m 0,0"
             id="path1461" />
        </g>
      </g>
    </g>
    <g
       id="g10794-4"
       transform="matrix(1.9334681,0,0,1.9334681,-316.87981,-292.94076)">
      <g
         style="fill:#21353a;fill-opacity:1"
         id="g10182-0">
        <g
           id="use10180-6"
           transform="matrix(0.26458333,0,0,0.26458333,168.11733,186.83483)">
          <path
             style="stroke:none"
             d="M 1.390625,-1.046875 C 1.578125,-0.34375 2.078125,0.125 2.78125,0.125 c 1.3125,0 2.6875,-1.5625 2.6875,-3.171875 0,-1.15625 -0.71875,-1.78125 -1.515625,-1.78125 C 3.09375,-4.828125 2,-4.0625 1.5,-2.65625 c -0.03125,0.109375 -0.6875,2.53125 -0.6875,3.5 0,0.546875 0.1875,1.0625 1.515625,1.0625 0.40625,0 0.625,-0.046875 1.0625,-0.046875 0.203125,0 0.21875,0 0.28125,0.015625 0.171875,0.015625 0.203125,0.015625 0.21875,0.109375 0.015625,0.0625 0.015625,0.125 0.140625,0.125 0.09375,0 0.15625,-0.03125 0.15625,-0.296875 0,-0.53125 -0.484375,-0.53125 -1.5625,-0.53125 -0.984375,0 -1.484375,0 -1.484375,-0.734375 0,-0.09375 0,-0.5 0.25,-1.59375 z M 2.78125,-0.125 c -0.34375,0 -0.796875,-0.25 -0.796875,-1.140625 0,-0.6875 0.3125,-1.78125 0.59375,-2.28125 0.453125,-0.765625 1,-1.03125 1.359375,-1.03125 0.40625,0 0.75,0.3125 0.75,1.0625 0,0.609375 -0.3125,1.828125 -0.609375,2.359375 -0.359375,0.6875 -0.875,1.03125 -1.296875,1.03125 z m 0,0"
             id="path1461-2" />
        </g>
      </g>
    </g>
    <g
       id="g10798"
       transform="matrix(1.4501011,0,0,1.4501011,-284.07145,-262.77825)" />
    <text
       xml:space="preserve"
       style="font-size:4.32868px;line-height:100%;font-family:'Indie Flower';-inkscape-font-specification:'Indie Flower, Normal';letter-spacing:0px;word-spacing:0px;writing-mode:lr-tb;fill:#000000;fill-opacity:1;stroke:none;stroke-width:0.216433px;stroke-linecap:butt;stroke-linejoin:miter;stroke-opacity:1"
       x="43.473209"
       y="99.856529"
       id="text3971"><tspan
         sodipodi:role="line"
         id="tspan3969"
         style="fill:#000000;fill-opacity:1;stroke:none;stroke-width:0.216433px"
         x="43.473209"
         y="99.856529">1</tspan></text>
    <text
       xml:space="preserve"
       style="font-size:4.32868px;line-height:100%;font-family:'Indie Flower';-inkscape-font-specification:'Indie Flower, Normal';letter-spacing:0px;word-spacing:0px;writing-mode:lr-tb;fill:#000000;fill-opacity:1;stroke:none;stroke-width:0.216433px;stroke-linecap:butt;stroke-linejoin:miter;stroke-opacity:1"
       x="10.13571"
       y="70.223206"
       id="text3971-2"><tspan
         sodipodi:role="line"
         id="tspan3969-6"
         style="fill:#000000;fill-opacity:1;stroke:none;stroke-width:0.216433px"
         x="10.13571"
         y="70.223206">2</tspan></text>
    <path
       style="fill:none;fill-rule:evenodd;stroke:#000000;stroke-width:0.264583px;stroke-linecap:butt;stroke-linejoin:miter;stroke-opacity:1"
       d="M 63.499999,95.249983 H 100.54166"
       id="path859-1"
       inkscape:path-effect="#path-effect15414"
       inkscape:original-d="m 63.499999,95.249983 c 12.589973,0.21659 24.694708,2.6e-4 37.041661,0" />
    <path
       style="fill:none;fill-rule:evenodd;stroke:#000000;stroke-width:0.264583px;stroke-linecap:butt;stroke-linejoin:miter;stroke-opacity:1"
       d="M 66.145833,97.895813 V 66.145831"
       id="path863-8"
       inkscape:path-effect="#path-effect15418"
       inkscape:original-d="m 66.145833,97.895813 c 2.64e-4,-10.583064 2.64e-4,-21.166388 0,-31.749982" />
    <path
       style="fill:#cccccc;fill-opacity:1;fill-rule:evenodd;stroke:#000000;stroke-width:0.264583px;stroke-linecap:butt;stroke-linejoin:miter;stroke-opacity:1"
       d="m 66.145833,71.437498 h 5.291666 l 7.9375,2.645827 3.968755,7.937505 v 13.229167 l -17.197927,-2.4e-5 z"
       id="path1007-3"
       inkscape:path-effect="#path-effect15422"
       inkscape:original-d="m 66.145833,71.437498 h 5.291666 l 7.9375,2.645827 3.968755,7.937505 v 13.229167 l -17.197927,-2.4e-5 z"
       sodipodi:nodetypes="ccccccc" />
    <path
       style="opacity:0.573712;fill:none;fill-opacity:1;fill-rule:evenodd;stroke:#008000;stroke-width:0.965;stroke-linecap:butt;stroke-linejoin:miter;stroke-miterlimit:4;stroke-dasharray:none;stroke-opacity:1"
       d="m 71.437499,71.437498 7.9375,2.645827 3.968755,7.937505"
       id="path1208-4"
       inkscape:path-effect="#path-effect15426"
       inkscape:original-d="m 71.437499,71.437498 c 2.646098,0.8822 7.9375,2.645827 7.9375,2.645827 l 3.968755,7.937505"
       sodipodi:nodetypes="ccc" />
    <path
       style="fill:none;fill-rule:evenodd;stroke:#008000;stroke-width:0.45961;stroke-linecap:butt;stroke-linejoin:miter;stroke-miterlimit:4;stroke-dasharray:none;stroke-opacity:1"
       d="m 78.316662,71.966652 c 0,0 0.803671,0.85734 0.803671,1.71467 0,0.857337 1.607341,-3.42934 1.607341,-3.42934"
       id="path7092-6-4"
       sodipodi:nodetypes="csc" />
    <g
       id="g10794-1"
       transform="matrix(1.9334681,0,0,1.9334681,-231.15479,-262.77827)">
      <g
         style="fill:#21353a;fill-opacity:1"
         id="g10182-7">
        <g
           id="use10180-5"
           transform="matrix(0.26458333,0,0,0.26458333,168.11733,186.83483)">
          <path
             style="stroke:none"
             d="M 1.390625,-1.046875 C 1.578125,-0.34375 2.078125,0.125 2.78125,0.125 c 1.3125,0 2.6875,-1.5625 2.6875,-3.171875 0,-1.15625 -0.71875,-1.78125 -1.515625,-1.78125 C 3.09375,-4.828125 2,-4.0625 1.5,-2.65625 c -0.03125,0.109375 -0.6875,2.53125 -0.6875,3.5 0,0.546875 0.1875,1.0625 1.515625,1.0625 0.40625,0 0.625,-0.046875 1.0625,-0.046875 0.203125,0 0.21875,0 0.28125,0.015625 0.171875,0.015625 0.203125,0.015625 0.21875,0.109375 0.015625,0.0625 0.015625,0.125 0.140625,0.125 0.09375,0 0.15625,-0.03125 0.15625,-0.296875 0,-0.53125 -0.484375,-0.53125 -1.5625,-0.53125 -0.984375,0 -1.484375,0 -1.484375,-0.734375 0,-0.09375 0,-0.5 0.25,-1.59375 z M 2.78125,-0.125 c -0.34375,0 -0.796875,-0.25 -0.796875,-1.140625 0,-0.6875 0.3125,-1.78125 0.59375,-2.28125 0.453125,-0.765625 1,-1.03125 1.359375,-1.03125 0.40625,0 0.75,0.3125 0.75,1.0625 0,0.609375 -0.3125,1.828125 -0.609375,2.359375 -0.359375,0.6875 -0.875,1.03125 -1.296875,1.03125 z m 0,0"
             id="path1461-7" />
        </g>
      </g>
    </g>
    <g
       id="g10794-4-1"
       transform="matrix(1.9334681,0,0,1.9334681,-263.96315,-292.94078)">
      <g
         style="fill:#21353a;fill-opacity:1"
         id="g10182-0-6">
        <g
           id="use10180-6-9"
           transform="matrix(0.26458333,0,0,0.26458333,168.11733,186.83483)">
          <path
             style="stroke:none"
             d="M 1.390625,-1.046875 C 1.578125,-0.34375 2.078125,0.125 2.78125,0.125 c 1.3125,0 2.6875,-1.5625 2.6875,-3.171875 0,-1.15625 -0.71875,-1.78125 -1.515625,-1.78125 C 3.09375,-4.828125 2,-4.0625 1.5,-2.65625 c -0.03125,0.109375 -0.6875,2.53125 -0.6875,3.5 0,0.546875 0.1875,1.0625 1.515625,1.0625 0.40625,0 0.625,-0.046875 1.0625,-0.046875 0.203125,0 0.21875,0 0.28125,0.015625 0.171875,0.015625 0.203125,0.015625 0.21875,0.109375 0.015625,0.0625 0.015625,0.125 0.140625,0.125 0.09375,0 0.15625,-0.03125 0.15625,-0.296875 0,-0.53125 -0.484375,-0.53125 -1.5625,-0.53125 -0.984375,0 -1.484375,0 -1.484375,-0.734375 0,-0.09375 0,-0.5 0.25,-1.59375 z M 2.78125,-0.125 c -0.34375,0 -0.796875,-0.25 -0.796875,-1.140625 0,-0.6875 0.3125,-1.78125 0.59375,-2.28125 0.453125,-0.765625 1,-1.03125 1.359375,-1.03125 0.40625,0 0.75,0.3125 0.75,1.0625 0,0.609375 -0.3125,1.828125 -0.609375,2.359375 -0.359375,0.6875 -0.875,1.03125 -1.296875,1.03125 z m 0,0"
             id="path1461-2-8" />
        </g>
      </g>
    </g>
    <text
       xml:space="preserve"
       style="font-size:4.32868px;line-height:100%;font-family:'Indie Flower';-inkscape-font-specification:'Indie Flower, Normal';letter-spacing:0px;word-spacing:0px;writing-mode:lr-tb;fill:#000000;fill-opacity:1;stroke:none;stroke-width:0.216433px;stroke-linecap:butt;stroke-linejoin:miter;stroke-opacity:1"
       x="96.389877"
       y="99.856544"
       id="text3971-1"><tspan
         sodipodi:role="line"
         id="tspan3969-3"
         style="fill:#000000;fill-opacity:1;stroke:none;stroke-width:0.216433px"
         x="96.389877"
         y="99.856544">1</tspan></text>
    <text
       xml:space="preserve"
       style="font-size:4.32868px;line-height:100%;font-family:'Indie Flower';-inkscape-font-specification:'Indie Flower, Normal';letter-spacing:0px;word-spacing:0px;writing-mode:lr-tb;fill:#000000;fill-opacity:1;stroke:none;stroke-width:0.216433px;stroke-linecap:butt;stroke-linejoin:miter;stroke-opacity:1"
       x="63.052372"
       y="70.223228"
       id="text3971-2-3"><tspan
         sodipodi:role="line"
         id="tspan3969-6-3"
         style="fill:#000000;fill-opacity:1;stroke:none;stroke-width:0.216433px"
         x="63.052372"
         y="70.223228">2</tspan></text>
    <path
       style="fill:none;fill-rule:evenodd;stroke:#000000;stroke-width:0.264583;stroke-linecap:butt;stroke-linejoin:miter;stroke-miterlimit:4;stroke-dasharray:1.05833, 1.05833;stroke-dashoffset:0;stroke-opacity:1"
       d="M 21.166671,66.14583 50.270838,95.249997"
       id="path15644"
       inkscape:path-effect="#path-effect15646"
       inkscape:original-d="M 21.166671,66.14583 50.270838,95.249997"
       sodipodi:nodetypes="cc" />
    <path
       style="fill:none;fill-rule:evenodd;stroke:#000000;stroke-width:0.264583;stroke-linecap:butt;stroke-linejoin:miter;stroke-miterlimit:4;stroke-dasharray:1.05833, 1.05833;stroke-dashoffset:0;stroke-opacity:1"
       d="m 71.437505,66.145831 29.104145,29.10417"
       id="path15644-9"
       inkscape:path-effect="#path-effect15875"
       inkscape:original-d="m 71.437505,66.145831 29.104145,29.10417"
       sodipodi:nodetypes="cc" />
    <path
       style="fill:none;fill-rule:evenodd;stroke:#000000;stroke-width:0.264583px;stroke-linecap:butt;stroke-linejoin:miter;stroke-opacity:1"
       d="m 115.09374,95.249977 h 37.04167"
       id="path859-1-8"
       inkscape:path-effect="#path-effect16866"
       inkscape:original-d="m 115.09374,95.249977 c 12.58998,0.21659 24.69471,2.6e-4 37.04167,0" />
    <path
       style="fill:none;fill-rule:evenodd;stroke:#000000;stroke-width:0.264583px;stroke-linecap:butt;stroke-linejoin:miter;stroke-opacity:1"
       d="M 117.73958,97.895807 V 66.145832"
       id="path863-8-6"
       inkscape:path-effect="#path-effect16870"
       inkscape:original-d="m 117.73958,97.895807 c 2.6e-4,-10.583057 2.6e-4,-21.166381 0,-31.749975" />
    <path
       style="fill:#cccccc;fill-opacity:1;fill-rule:evenodd;stroke:#000000;stroke-width:0.264583px;stroke-linecap:butt;stroke-linejoin:miter;stroke-opacity:1"
       d="m 117.73959,75.406247 26.45833,19.84375 -26.45835,-3e-5 z"
       id="path1007-3-7"
       inkscape:path-effect="#path-effect16874"
       inkscape:original-d="m 117.73959,75.406247 c 12.51925,5.840328 17.11722,8.167355 26.45833,19.84375 l -26.45835,-3e-5 z"
       sodipodi:nodetypes="cccc" />
    <path
       style="opacity:0.573712;fill:none;fill-opacity:1;fill-rule:evenodd;stroke:#008000;stroke-width:0.965;stroke-linecap:butt;stroke-linejoin:miter;stroke-miterlimit:4;stroke-dasharray:none;stroke-opacity:1"
       d="m 117.73959,75.406247 26.45833,19.84375"
       id="path1208-4-0"
       inkscape:path-effect="#path-effect16878"
       inkscape:original-d="m 117.73959,75.406247 c 7.62292,1.463634 23.17337,13.273842 26.45833,19.84375"
       sodipodi:nodetypes="cc" />
    <path
       style="fill:none;fill-rule:evenodd;stroke:#008000;stroke-width:0.45961;stroke-linecap:butt;stroke-linejoin:miter;stroke-miterlimit:4;stroke-dasharray:none;stroke-opacity:1"
       d="m 143.1396,93.133321 c 0,0 0.80367,0.85734 0.80367,1.714672 0,0.85733 1.60734,-3.429342 1.60734,-3.429342"
       id="path7092-6-4-4"
       sodipodi:nodetypes="csc" />
    <g
       id="g10794-1-8"
       transform="matrix(1.9334681,0,0,1.9334681,-179.56104,-262.77828)">
      <g
         style="fill:#21353a;fill-opacity:1"
         id="g10182-7-4">
        <g
           id="use10180-5-8"
           transform="matrix(0.26458333,0,0,0.26458333,168.11733,186.83483)">
          <path
             style="stroke:none"
             d="M 1.390625,-1.046875 C 1.578125,-0.34375 2.078125,0.125 2.78125,0.125 c 1.3125,0 2.6875,-1.5625 2.6875,-3.171875 0,-1.15625 -0.71875,-1.78125 -1.515625,-1.78125 C 3.09375,-4.828125 2,-4.0625 1.5,-2.65625 c -0.03125,0.109375 -0.6875,2.53125 -0.6875,3.5 0,0.546875 0.1875,1.0625 1.515625,1.0625 0.40625,0 0.625,-0.046875 1.0625,-0.046875 0.203125,0 0.21875,0 0.28125,0.015625 0.171875,0.015625 0.203125,0.015625 0.21875,0.109375 0.015625,0.0625 0.015625,0.125 0.140625,0.125 0.09375,0 0.15625,-0.03125 0.15625,-0.296875 0,-0.53125 -0.484375,-0.53125 -1.5625,-0.53125 -0.984375,0 -1.484375,0 -1.484375,-0.734375 0,-0.09375 0,-0.5 0.25,-1.59375 z M 2.78125,-0.125 c -0.34375,0 -0.796875,-0.25 -0.796875,-1.140625 0,-0.6875 0.3125,-1.78125 0.59375,-2.28125 0.453125,-0.765625 1,-1.03125 1.359375,-1.03125 0.40625,0 0.75,0.3125 0.75,1.0625 0,0.609375 -0.3125,1.828125 -0.609375,2.359375 -0.359375,0.6875 -0.875,1.03125 -1.296875,1.03125 z m 0,0"
             id="path1461-7-1" />
        </g>
      </g>
    </g>
    <g
       id="g10794-4-1-6"
       transform="matrix(1.9334681,0,0,1.9334681,-212.3694,-292.94079)">
      <g
         style="fill:#21353a;fill-opacity:1"
         id="g10182-0-6-8">
        <g
           id="use10180-6-9-5"
           transform="matrix(0.26458333,0,0,0.26458333,168.11733,186.83483)">
          <path
             style="stroke:none"
             d="M 1.390625,-1.046875 C 1.578125,-0.34375 2.078125,0.125 2.78125,0.125 c 1.3125,0 2.6875,-1.5625 2.6875,-3.171875 0,-1.15625 -0.71875,-1.78125 -1.515625,-1.78125 C 3.09375,-4.828125 2,-4.0625 1.5,-2.65625 c -0.03125,0.109375 -0.6875,2.53125 -0.6875,3.5 0,0.546875 0.1875,1.0625 1.515625,1.0625 0.40625,0 0.625,-0.046875 1.0625,-0.046875 0.203125,0 0.21875,0 0.28125,0.015625 0.171875,0.015625 0.203125,0.015625 0.21875,0.109375 0.015625,0.0625 0.015625,0.125 0.140625,0.125 0.09375,0 0.15625,-0.03125 0.15625,-0.296875 0,-0.53125 -0.484375,-0.53125 -1.5625,-0.53125 -0.984375,0 -1.484375,0 -1.484375,-0.734375 0,-0.09375 0,-0.5 0.25,-1.59375 z M 2.78125,-0.125 c -0.34375,0 -0.796875,-0.25 -0.796875,-1.140625 0,-0.6875 0.3125,-1.78125 0.59375,-2.28125 0.453125,-0.765625 1,-1.03125 1.359375,-1.03125 0.40625,0 0.75,0.3125 0.75,1.0625 0,0.609375 -0.3125,1.828125 -0.609375,2.359375 -0.359375,0.6875 -0.875,1.03125 -1.296875,1.03125 z m 0,0"
             id="path1461-2-8-2" />
        </g>
      </g>
    </g>
    <text
       xml:space="preserve"
       style="font-size:4.32868px;line-height:100%;font-family:'Indie Flower';-inkscape-font-specification:'Indie Flower, Normal';letter-spacing:0px;word-spacing:0px;writing-mode:lr-tb;fill:#000000;fill-opacity:1;stroke:none;stroke-width:0.216433px;stroke-linecap:butt;stroke-linejoin:miter;stroke-opacity:1"
       x="147.98349"
       y="99.856537"
       id="text3971-1-1"><tspan
         sodipodi:role="line"
         id="tspan3969-3-9"
         style="fill:#000000;fill-opacity:1;stroke:none;stroke-width:0.216433px"
         x="147.98349"
         y="99.856537">1</tspan></text>
    <text
       xml:space="preserve"
       style="font-size:4.32868px;line-height:100%;font-family:'Indie Flower';-inkscape-font-specification:'Indie Flower, Normal';letter-spacing:0px;word-spacing:0px;writing-mode:lr-tb;fill:#000000;fill-opacity:1;stroke:none;stroke-width:0.216433px;stroke-linecap:butt;stroke-linejoin:miter;stroke-opacity:1"
       x="114.64607"
       y="70.223236"
       id="text3971-2-3-9"><tspan
         sodipodi:role="line"
         id="tspan3969-6-3-6"
         style="fill:#000000;fill-opacity:1;stroke:none;stroke-width:0.216433px"
         x="114.64607"
         y="70.223236">2</tspan></text>
    <path
       style="fill:none;fill-rule:evenodd;stroke:#000000;stroke-width:0.264583;stroke-linecap:butt;stroke-linejoin:miter;stroke-miterlimit:4;stroke-dasharray:1.05833, 1.05833;stroke-dashoffset:0;stroke-opacity:1"
       d="m 117.73959,68.791664 26.45829,26.458333"
       id="path15644-9-0"
       inkscape:path-effect="#path-effect16882"
       inkscape:original-d="m 117.73959,68.791664 26.45829,26.458333"
       sodipodi:nodetypes="cc" />
  </g>
</svg>
